<?xml version="1.0" encoding="utf-8"?>
<!-- Generator: Adobe Illustrator 21.0.0, SVG Export Plug-In . SVG Version: 6.00 Build 0)  -->
<svg version="1.1" id="Layer_1" xmlns="http://www.w3.org/2000/svg" xmlns:xlink="http://www.w3.org/1999/xlink" x="0px" y="0px"
	 viewBox="0 0 512 500.7" style="enable-background:new 0 0 512 500.7;" xml:space="preserve">
<style type="text/css">
	.st0{display:none;fill:#EB1A39;}
	.st1{display:none;fill:none;stroke:#EB1A39;stroke-width:4;stroke-miterlimit:10;}
	.st2{display:none;}
	.st3{display:inline;fill:#FEFEFE;}
	.st4{display:inline;fill:#EB1A39;}
	.st5{display:inline;fill:#FFFFFF;stroke:#EB1A39;stroke-width:4;stroke-miterlimit:10;}
	.st6{display:inline;}
	.st7{fill:#010101;}
	.st8{fill:#020202;}
	.st9{fill:#A60924;}
	.st10{fill:#EB1A39;}
	.st11{fill:#FEFEFE;}
	.st12{fill:#FFFFFF;}
</style>
<path class="st0" d="M407.5,178.2c-0.2-2.4,0.2-4.9,0.1-7.3c-0.1-3.5-0.3-7-0.6-10.5c-0.5-5.9-1-11.8-1.9-17.6
	c-0.8-4.6-1.5-9.2-2.3-13.8c-0.5-2.9-0.9-5.7-4.4-7.2c-10.1-4.2-18.2-11.1-24.3-20.3c-3.3-5-5.9-10.4-7.7-16.1
	c-0.4-1.3-0.9-1.6-2.2-1.7c-7.2-0.6-14.4-1.8-21.4-3.4c-7.2-1.7-14.4-3.6-21.4-6c-6.5-2.2-13-4.6-19.4-7.2
	c-7.9-3.3-15.9-6.5-23.6-10.4c-7.4-3.7-14.7-7.7-21.9-11.8c-0.5-0.3-0.9-0.4-1.6,0c-6,3.3-11.9,6.8-18,9.8
	c-5.3,2.6-10.5,5.3-15.9,7.6c-6,2.7-12.2,5.1-18.3,7.5c-5.4,2.1-10.9,4-16.5,5.8c-7.3,2.3-14.6,4.3-22.1,5.8
	c-4.9,1-9.8,1.9-14.7,2.4c-0.4,0-1.1-0.1-1.4,0.1c-1.4,0.1-2.8,0-3.6-0.2c0,0-3.1,11.2-4.8,14.3c0,0.1-0.1,0.1-0.1,0.2
	c-6.6,11.5-16.1,19.6-28.5,24.6c-1.2,0.5-1.6,1.1-1.7,2.2c-0.8,5.1-1.8,10.2-2.5,15.3c-0.9,6.2-1.7,12.4-2.2,18.6
	c-1,12.8-1.2,25.7-0.5,38.5c0.5,10,1.4,20,3,29.9c1.4,9.1,3.2,18,5.4,26.9c2.6,10.2,5.7,20.2,9.3,30c3.7,10.2,8.2,20.1,13.1,29.8
	c2.6,5.2,5.5,10.3,8.5,15.4c6.7,11.3,14.1,22.1,22.2,32.4c5.1,6.5,10.4,12.8,16.1,18.9c3.6,3.9,7.4,7.6,11.1,11.4
	c6.3,6.5,13,12.5,19.9,18.4c13.1,11.4,27.3,21.3,41.5,31.2c1.1,0.8,1.9,0.7,3,0c5.9-4.2,11.8-8.4,17.7-12.6
	c14.1-10.1,27.5-20.9,39.8-33.2c2.6-2.6,5.4-5.1,8-7.8c10.8-10.7,20.5-22.4,29.4-34.6c6.4-8.8,12.6-17.8,17.7-27.4
	c1.6-3.1,3.7-5.9,5-9.2c0.1-0.2,0.2-0.5,0.4-0.6c0.1-0.1,0.2-0.2,0.3-0.3c0.1-0.1,0.2-0.3,0.3-0.4c-0.1-0.6,0.1-1.3,0.7-1.6
	c0-0.5,0.1-0.9,0.4-1.2c-0.2-0.4,0.3-0.9,0.6-1.3c0.2-0.2,0.3-0.5,0.4-0.7c0-0.2,0-0.5,0.2-0.8c1.1-2.1,2.2-4.3,3.5-6.4
	c0-0.4,0.2-0.7,0.5-1c0-0.1,0.1-0.1,0.1-0.2c0-0.1,0.1-0.2,0.1-0.3c0.1-0.3,0.2-0.6,0.3-0.9c3.5-7.4,6.4-15.1,9.2-22.8
	c3.2-8.9,5.5-18,7.9-27.2c2.1-7.8,3.2-15.7,4.7-23.6c1.1-5.9,1.7-12,2.2-18c0.5-6.2,0.9-12.4,1.1-18.6
	C407.8,186.5,407.9,182.3,407.5,178.2z M393,192.3c-0.1,6.8-0.8,13.6-1.4,20.3c-0.3,4.3-1.1,8.5-1.7,12.8
	c-0.9,6.5-2.3,12.9-3.7,19.3c-1,4.5-2.3,9-3.5,13.5c-1.2,4.6-2.7,9.1-4.2,13.6c-1.9,5.8-4.4,11.4-6.7,17.1c-1.6,4-3.4,8-5.2,11.9
	c-2.4,5.2-5.3,10.1-8,15.1c-1.4,2.7-2.9,5.5-4.5,8c-2.3,3.5-4.4,7.2-6.8,10.6c-5.9,8.6-12.1,17.1-18.9,25.1
	c-7.7,9.1-15.8,17.8-24.5,26c-5,4.8-10.3,9.5-15.6,14c-10.2,8.7-21,16.6-32,24.4c-0.8,0.5-1.3,0.5-2.1,0c-8.5-6-16.9-12.1-25-18.6
	c-16.5-13.2-31.7-27.8-45.4-44c-7.3-8.6-14.1-17.7-20.5-27c-6.4-9.4-12-19.2-17.1-29.4c-2.8-5.7-5.6-11.5-8-17.4
	c-2.7-6.6-5.2-13.4-7.4-20.3c-1.8-5.7-3.4-11.4-4.9-17.2c-1.5-5.6-2.5-11.3-3.7-16.9c-1.2-6.3-2-12.7-3-19.1
	c-0.6-4-0.9-7.9-1.1-11.9c-0.6-10.2-0.7-20.4-0.4-30.7c0.3-8.9,0.9-17.9,2.3-26.7c0.5-3,0.7-6.1,1.1-9.2c0.3-2.5,1.9-3.3,3.6-4.2
	c9-4.9,16.4-11.6,22.4-19.8c3.1-4.2,5.8-8.7,7.7-13.6c0.2-0.6,0.6-1.2,1.5-1.3c5.2-0.8,10.3-1.8,15.4-2.9c3.5-0.7,6.8-1.8,10.3-2.6
	c4.8-1.1,9.4-2.8,14.1-4.4c6.4-2.3,12.8-4.7,19.2-7.2c7.1-2.8,14.1-6,21-9.3c6.1-2.9,12-6,17.9-9.2c0.7-0.4,1.2-0.4,1.9,0
	c5.9,3.1,11.7,6.2,17.7,9.2c2.3,1.1,4.7,2,6.9,3.1c3.4,1.6,6.9,3.2,10.4,4.6c9,3.8,18.2,7.3,27.6,10.3c5.6,1.8,11.3,3.4,17,4.9
	c6,1.5,12.1,2.8,18.2,3.6c1.1,0.2,1.3,0.8,1.7,1.6c2.7,5.8,5.9,11.2,10,16.2c6.1,7.3,13.1,13.6,21.7,17.9c1.5,0.7,1.7,2.1,1.9,3.4
	c2.1,13.8,3.6,27.6,3.7,41.6C393.2,182.5,393.1,187.4,393,192.3z"/>
<path class="st1" d="M402.1,126.9c-0.2-1.7-0.5-3.2-2.3-4.3c-14.6-9.2-25.8-21.6-34.3-36.6c-0.3-0.5-0.5-1.2-1.3-1.3
	c-2-0.4-3.9-0.8-5.9-1.2c-5.8-1.3-11.6-2.3-17.3-4.1c-6.6-2.1-13.4-3.7-19.9-6.3c-5.6-2.2-11.3-4.1-16.8-6.3
	c-7.5-2.9-15-6.1-22.4-9.4c-7.7-3.5-15.4-7-22.8-11c-2.1-1.2-3.7-1.2-5.8-0.1c-8.1,4.1-16.1,8.3-24.4,11.9
	c-8.1,3.5-16.2,6.9-24.4,10c-9.4,3.5-18.9,6.9-28.5,9.7c-8.9,2.7-18,4.9-27.2,6.6c-1.2,0.2-1.7,0.8-2.2,1.7
	c-8.3,15-19.6,27.2-34.1,36.3c-1.3,0.8-1.9,1.8-2.1,3.3c-0.2,1.6-0.2,3.3-0.5,4.9c-1.2,7.8-1.8,15.6-2.2,23.4
	c-0.5,9.9-0.5,19.9-0.2,29.8c0.1,2.2,0,4.3,0,6.5c0,0.4,0.1,0.6,0.1,0.8l-0.1,0.1l-0.9,1.5l0.8,3.2l0.7,0.4c0,0.2,0,0.4,0,0.6
	c0.3,3.9,0.7,7.9,1.1,11.8c0.9,8,2,16,3.6,23.9c1.4,6.9,2.9,13.8,4.8,20.7c1.4,5.1,2.7,10.3,4.4,15.3c2.9,8.7,6.1,17.4,9.5,26
	c2.1,5.2,4.6,10.2,7.1,15.2c4,8.4,8.5,16.5,13.3,24.4c5.9,9.6,12.3,18.9,19.1,27.9c8.1,10.7,16.9,20.9,26.1,30.7
	c10.6,11.2,22,21.6,33.8,31.4c7.5,6.3,15.3,12.2,23.2,17.9c1.2,0.9,2.2,0.9,3.5,0c7.9-5.8,15.7-11.7,23.2-17.9
	c9.8-8.2,19.3-16.8,28.4-25.7c0.8-0.8,0.3-2.3,1.8-2.7c1.2-0.4,1.8-1.6,2-2.8c-0.2-0.2-0.5-0.3-0.1-0.6c0,0,0.2,0.2,0.4,0.3
	c1.7-0.2,2.6-1.3,3.7-2.5c5.6-6.1,11.2-12.1,16.4-18.5c5.8-7.1,11-14.6,16.3-22.1c3.3-4.6,6.5-9.2,9.5-14
	c6.6-10.5,12-21.5,17.4-32.6c4.2-8.7,7.3-17.8,10.7-26.8c1.6-4.3,2.8-8.8,4.3-13.2c2.3-7,4.1-14,5.5-21.2c0.8-4.1,1.8-8.1,2.4-12.3
	c0.5-3.7,1.5-7.3,2.3-11c0.7-3.2,0.5-6.4,1-9.6c1.6-9.2,1.7-18.6,2-27.9C405.5,163.1,404.6,144.9,402.1,126.9z M109.4,190.6
	c0.3-0.2,0.7-0.4,1-0.5L109.4,190.6z M312.9,392.1c-0.1,0-0.2-0.1-0.2-0.1c0,0,0.1-0.1,0.1-0.1c0,0,0.1,0,0.1,0.1
	C312.9,392,312.9,392.1,312.9,392.1z M312.8,390.9c0-0.1-0.1-0.1-0.1-0.2c0,0,0.1-0.1,0.1-0.1c0,0.1,0.1,0.1,0.1,0.2
	C312.9,390.9,312.9,390.9,312.8,390.9z M313.7,391.2c0,0-0.1,0-0.1-0.1c0-0.1,0.1-0.1,0.1-0.2c0,0,0.1,0.1,0.1,0.1
	C313.8,391.1,313.7,391.2,313.7,391.2z"/>
<g class="st2">
	<path class="st3" d="M417.5,116.6c-0.2-1.6-0.6-3.2-2.3-4.1c-10.3-5.2-18.8-12.7-26.1-21.5c-4.9-5.9-8.8-12.5-12-19.5
		c-0.4-0.9-0.7-1.7-2-1.9c-7.4-1-14.7-2.5-22-4.3c-6.9-1.7-13.7-3.7-20.5-5.9c-11.3-3.6-22.3-7.8-33.2-12.4
		c-4.2-1.8-8.4-3.7-12.5-5.6c-2.7-1.3-5.6-2.4-8.4-3.7c-7.2-3.5-14.3-7.3-21.3-11c-0.9-0.5-1.4-0.5-2.3,0c-7.1,3.8-14.3,7.6-21.6,11
		c-8.3,4-16.7,7.8-25.3,11.2c-7.7,3-15.4,5.9-23.1,8.7c-5.6,2-11.2,4.1-17,5.4c-4.2,0.9-8.2,2.3-12.4,3.2
		c-6.2,1.3-12.4,2.6-18.6,3.5c-1.1,0.2-1.6,0.8-1.9,1.5c-2.3,5.9-5.6,11.3-9.3,16.4c-7.3,9.9-16.2,18-27,23.9c-2,1.1-3.9,2-4.3,5
		c-0.5,3.7-0.8,7.4-1.3,11c-1.6,10.7-2.4,21.4-2.8,32.2c-0.4,12.3-0.2,24.6,0.5,36.9c0.3,4.8,0.7,9.6,1.4,14.4
		c1.1,7.7,2.1,15.4,3.6,23c1.4,6.8,2.7,13.7,4.4,20.4c1.8,6.9,3.8,13.8,5.9,20.7c2.6,8.3,5.6,16.4,8.9,24.4c2.9,7.1,6.3,14,9.7,20.9
		c6.1,12.2,12.9,24.1,20.6,35.4c7.6,11.3,15.8,22.2,24.6,32.6c16.5,19.4,34.8,37,54.7,53c9.8,7.8,19.9,15.2,30.2,22.4
		c0.9,0.6,1.6,0.7,2.5,0c13.2-9.3,26.3-18.9,38.6-29.4c6.4-5.5,12.7-11,18.7-16.8c10.4-9.9,20.2-20.4,29.5-31.4
		c8.1-9.7,15.6-19.8,22.7-30.2c2.9-4.2,5.5-8.5,8.2-12.8c2-3.1,3.7-6.4,5.4-9.7c3.2-6.1,6.8-12,9.6-18.2c2.2-4.7,4.4-9.4,6.3-14.3
		c2.7-6.9,5.7-13.6,8-20.6c1.8-5.4,3.6-10.9,5-16.4c1.4-5.4,3-10.8,4.2-16.2c1.7-7.7,3.3-15.4,4.4-23.3c0.7-5.1,1.7-10.2,2.1-15.4
		c0.7-8.2,1.5-16.3,1.6-24.5c0.1-5.9,0.2-11.8,0.2-17.7C421.9,149.9,420.1,133.2,417.5,116.6z M405,181.8c-0.3,9.3-0.5,18.7-2,27.9
		c-0.5,3.2-0.4,6.4-1,9.6c-0.8,3.7-1.8,7.3-2.3,11c-0.5,4.2-1.6,8.2-2.4,12.3c-1.4,7.2-3.3,14.3-5.5,21.2c-1.4,4.4-2.7,8.9-4.3,13.2
		c-3.4,9-6.5,18.1-10.7,26.8c-5.4,11.1-10.9,22.1-17.4,32.6c-3,4.8-6.2,9.4-9.5,14c-5.3,7.5-10.5,15-16.3,22.1
		c-5.2,6.4-10.9,12.4-16.4,18.5c-1,1.1-2,2.3-3.7,2.5c-0.1,0.1-0.2,0.2-0.2,0.2c-0.2,1.3-0.8,2.4-2,2.8c-1.5,0.4-1,1.9-1.8,2.7
		c-9.1,9-18.6,17.6-28.4,25.7c-7.5,6.2-15.4,12.1-23.2,17.9c-1.2,0.9-2.3,0.9-3.5,0c-7.9-5.7-15.7-11.7-23.2-17.9
		c-11.9-9.8-23.2-20.3-33.8-31.4c-9.3-9.8-18-20-26.1-30.7c-6.8-9-13.2-18.3-19.1-27.9c-4.8-7.9-9.3-16.1-13.3-24.4
		c-2.4-5.1-5-10-7.1-15.2c-3.4-8.6-6.6-17.3-9.5-26c-1.7-5-3-10.2-4.4-15.3c-1.9-6.8-3.4-13.7-4.8-20.7c-1.6-7.9-2.7-15.9-3.6-23.9
		c-0.4-3.9-0.8-7.9-1.1-11.8c0-0.3-0.1-0.6,0-0.9c-0.3-0.2-0.6-0.6-0.7-1c-0.2-1.1-0.3-2.1-0.1-3.2c0-0.3,0.2-0.5,0.4-0.7
		c-0.1-0.2-0.1-0.4-0.1-0.8c0-2.2,0-4.3,0-6.5c-0.3-9.9-0.3-19.9,0.2-29.8c0.4-7.8,1-15.7,2.2-23.4c0.3-1.6,0.3-3.3,0.5-4.9
		c0.1-1.4,0.8-2.5,2.1-3.3c14.5-9.2,25.8-21.4,34.1-36.3c0.5-0.9,1.1-1.5,2.2-1.7c9.2-1.8,18.2-4,27.2-6.6
		c9.6-2.9,19.1-6.2,28.5-9.7c8.2-3.1,16.4-6.5,24.4-10c8.3-3.6,16.4-7.8,24.4-11.9c2.1-1.1,3.7-1.1,5.8,0.1c7.4,4,15.1,7.6,22.8,11
		c7.4,3.3,14.8,6.4,22.4,9.4c5.6,2.2,11.3,4.1,16.8,6.3c6.5,2.6,13.3,4.2,19.9,6.3c5.6,1.8,11.5,2.8,17.3,4.1c2,0.5,3.9,0.9,5.9,1.2
		c0.8,0.1,1,0.8,1.3,1.3c8.5,15,19.7,27.4,34.3,36.6c1.7,1.1,2,2.7,2.3,4.3C404.6,145.4,405.5,163.5,405,181.8z"/>
	<path class="st4" d="M439.2,167.4c-0.3-2.9,0.2-5.9,0.1-8.8c-0.1-4.2-0.4-8.5-0.8-12.7c-0.6-7.1-1.2-14.2-2.3-21.2
		c-0.9-5.6-1.8-11.1-2.7-16.7c-0.6-3.5-1.1-6.9-5.3-8.6c-12.2-5.1-22-13.3-29.3-24.4c-4-6-7.1-12.5-9.3-19.4c-0.5-1.5-1.1-2-2.6-2.1
		c-8.7-0.7-17.3-2.1-25.8-4.1c-8.7-2-17.3-4.4-25.8-7.3c-7.8-2.7-15.7-5.5-23.3-8.7c-9.6-4-19.1-7.9-28.4-12.5
		c-8.9-4.5-17.7-9.3-26.4-14.2c-0.7-0.4-1.1-0.5-1.9,0c-7.2,4-14.3,8.2-21.7,11.8c-6.4,3.1-12.7,6.3-19.1,9.2
		c-7.3,3.2-14.6,6.2-22.1,9c-6.6,2.5-13.2,4.9-19.9,7c-8.7,2.8-17.6,5.2-26.6,7c-5.9,1.2-11.8,2.3-17.8,2.9
		c-0.5,0.1-1.3-0.2-1.7,0.1c-1.7,0.1-3.4,0.1-4.4-0.3c0,0-3.7,13.5-5.8,17.2c0,0.1-0.1,0.1-0.1,0.2c-7.9,13.8-19.4,23.6-34.3,29.6
		c-1.4,0.6-1.9,1.3-2.1,2.6c-1,6.1-2.2,12.3-3.1,18.4c-1.1,7.5-2.1,15-2.6,22.5c-1.2,15.5-1.5,30.9-0.6,46.4
		c0.6,12.1,1.7,24.1,3.6,36c1.7,10.9,3.9,21.7,6.5,32.5c3.1,12.3,6.9,24.3,11.2,36.2c4.5,12.3,9.9,24.2,15.8,35.8
		c3.2,6.3,6.7,12.5,10.3,18.5c8.1,13.6,16.9,26.6,26.8,39c6.2,7.8,12.6,15.5,19.4,22.8c4.4,4.7,8.9,9.2,13.4,13.8
		c7.6,7.8,15.7,15,23.9,22.2c15.8,13.7,32.9,25.6,50,37.6c1.3,0.9,2.3,0.9,3.6,0c7.1-5.1,14.2-10.1,21.3-15.2
		c16.9-12.2,33.2-25.2,48-40.1c3.2-3.2,6.5-6.2,9.7-9.3c13-12.9,24.6-27,35.5-41.7c7.8-10.6,15.2-21.4,21.4-33
		c2-3.7,4.5-7.1,6.1-11.1c0.1-0.3,0.3-0.5,0.5-0.8c0.1-0.2,0.2-0.3,0.4-0.4c0.1-0.2,0.2-0.3,0.4-0.5c-0.1-0.7,0.1-1.6,0.8-1.9
		c-0.1-0.5,0.1-1.1,0.5-1.5c-0.3-0.5,0.3-1.1,0.7-1.5c0.3-0.3,0.4-0.6,0.5-0.9c0-0.3,0-0.6,0.2-0.9c1.4-2.6,2.6-5.2,4.3-7.7
		c0-0.5,0.3-0.9,0.6-1.2c0-0.1,0.1-0.2,0.2-0.2c0-0.1,0.1-0.3,0.1-0.4c0.1-0.4,0.2-0.7,0.4-1.1c4.2-9,7.7-18.2,11-27.5
		c3.8-10.7,6.6-21.7,9.5-32.7c2.5-9.3,3.8-18.9,5.6-28.4c1.4-7.2,2-14.5,2.7-21.7c0.7-7.5,1-14.9,1.3-22.4
		C439.5,177.4,439.7,172.4,439.2,167.4z M421.8,184.4c-0.1,8.2-1,16.3-1.6,24.5c-0.4,5.2-1.4,10.3-2.1,15.4
		c-1.1,7.8-2.7,15.6-4.4,23.3c-1.2,5.5-2.8,10.8-4.2,16.2c-1.5,5.5-3.3,11-5,16.4c-2.3,7-5.3,13.8-8,20.6c-1.9,4.9-4.1,9.6-6.3,14.3
		c-2.9,6.2-6.4,12.1-9.6,18.2c-1.7,3.3-3.5,6.6-5.4,9.7c-2.7,4.3-5.4,8.6-8.2,12.8c-7.2,10.4-14.6,20.6-22.7,30.2
		c-9.2,11-19.1,21.4-29.5,31.4c-6.1,5.8-12.4,11.4-18.7,16.8c-12.3,10.5-25.4,20-38.6,29.4c-0.9,0.6-1.6,0.6-2.5,0
		c-10.3-7.2-20.4-14.6-30.2-22.4c-19.9-16-38.2-33.6-54.7-53c-8.8-10.4-17-21.3-24.6-32.6c-7.7-11.3-14.5-23.1-20.6-35.4
		c-3.4-6.9-6.8-13.8-9.7-20.9c-3.3-8-6.2-16.2-8.9-24.4c-2.2-6.8-4.1-13.7-5.9-20.7c-1.8-6.7-3.1-13.6-4.4-20.4
		c-1.5-7.6-2.4-15.3-3.6-23c-0.7-4.8-1.1-9.6-1.4-14.4c-0.7-12.3-0.9-24.6-0.5-36.9c0.4-10.8,1.1-21.5,2.8-32.2
		c0.6-3.7,0.9-7.4,1.3-11c0.4-3,2.3-3.9,4.3-5c10.8-5.9,19.7-14,27-23.9c3.7-5.1,7-10.5,9.3-16.4c0.3-0.8,0.8-1.4,1.9-1.5
		c6.2-0.9,12.4-2.2,18.6-3.5c4.2-0.9,8.2-2.2,12.4-3.2c5.8-1.3,11.4-3.4,17-5.4c7.8-2.8,15.5-5.6,23.1-8.7c8.6-3.4,17-7.2,25.3-11.2
		c7.3-3.5,14.4-7.3,21.6-11c0.9-0.5,1.4-0.5,2.3,0c7.1,3.8,14.2,7.5,21.3,11c2.7,1.3,5.6,2.4,8.4,3.7c4.1,2,8.3,3.8,12.5,5.6
		c10.9,4.6,21.9,8.8,33.2,12.4c6.8,2.2,13.6,4.2,20.5,5.9c7.2,1.8,14.6,3.3,22,4.3c1.4,0.2,1.6,1,2,1.9c3.2,7,7.1,13.5,12,19.5
		c7.3,8.9,15.8,16.3,26.1,21.5c1.8,0.9,2.1,2.5,2.3,4.1c2.6,16.6,4.4,33.3,4.4,50.1C421.9,172.6,421.8,178.5,421.8,184.4z"/>
	<path class="st5" d="M152.1,83.8c12.3-2.9,57.1-14.5,100.5-36.6c2.1-1.1,4.7-1.2,6.8-0.1c14.4,6.7,70.3,32.4,101.4,37.1
		c2.2,0.3,4.1,1.6,5.3,3.5c4.9,7.5,18.5,27.1,31.6,34.6c2.1,1.2,3.6,3.2,4,5.5c5,27.5,26.7,192.4-143,311.7c-2.7,1.9-6.2,1.9-8.9,0
		c-27.2-19-167.5-126.8-137.9-313.5c0.3-2,1.4-3.8,3.1-5c6.4-4.6,22.9-17.5,32.1-33.3C148.3,85.7,150,84.3,152.1,83.8z"/>
	<g class="st6">
		<g>
			<path class="st7" d="M166.5,232.6c0.1-0.1,0.4-0.1,0.6-0.1c3.4,0,6.8,0,10.1,0c0.5,0,0.7,0.1,1,0.5c4.8,6.2,9.9,12.5,14.7,18.7
				c1.6,2.1,3.3,4.1,4.8,6.3c0.1,0.1,0.3,0.3,0.4,0.5h0.1l0,0c0-0.3,0-0.4,0-0.6c0-3,0-6.1,0-9.1c0-5.1,0-10.2,0-15.3
				c0-0.3,0-0.5,0-0.6c0-0.1,0.1-0.3,0.3-0.3c0.1,0,0.3,0,0.5,0c3.3,0,6.6,0,9.8,0c0.6,0,0.6,0,0.6,0.6c0,7.6,0,15.1,0,22.6
				c0,6.2,0,12.4,0,18.7c0,0.3,0,0.5,0,0.6c0,0.3-0.1,0.3-0.3,0.3c-0.1,0-0.3,0-0.5,0c-3.3,0-6.5,0-9.8,0c-0.1,0-0.3,0-0.3,0
				c-0.3,0-0.5-0.1-0.6-0.3c-1.2-1.6-2.5-3-3.7-4.7c-5.4-6.8-10.7-13.6-16.1-20.5c-0.1-0.3-0.3-0.4-0.5-0.6c-0.3,0-0.1,0.3-0.1,0.3
				c0,0.3,0,0.5,0,0.6c0,8,0,16.2,0,24.2c0,1,0.1,0.8-0.8,0.8c-3.6,0-7,0-10.5,0C166.5,261.1,166.5,246.9,166.5,232.6z"/>
			<path class="st7" d="M347.7,257.2c0,1-0.3,1.9-0.5,2.9c-1.9,6.6-5.9,11.3-12.1,14.2c-2.5,1.1-5.1,1.8-7.8,2.1
				c-2.1,0.3-4.3,0.3-6.3,0c-4.7-0.6-9-2.3-12.5-5.4c-3.9-3.3-6.2-7.6-7.2-12.5c-0.8-4.5-0.6-9,1.2-13.2c2.6-6.5,7.6-10.7,14.1-12.8
				c1.8-0.6,3.7-1,5.7-1.1c2.1-0.1,4-0.1,5.9,0.3c6.1,0.8,11.2,3.6,15.1,8.3c2.3,2.9,3.7,6.2,4.5,9.9c0,0.4,0,0.6,0.1,1
				c0,0.3,0.1,0.5,0.1,0.6c0,1.7,0,3.6,0,5.2C347.7,256.7,347.7,257,347.7,257.2z M324.3,242.1c-1.2,0-2.3,0.1-3.6,0.5
				c-5.6,1.6-9.4,7-8.4,13.2c0.5,3,1.9,5.5,4.4,7.3c2.9,2.2,6.2,3,9.9,2.3c5.5-1,9.4-5.5,9.8-10.5c0.3-2.6-0.3-4.8-1.6-7
				C332.4,244,328.9,242.2,324.3,242.1z"/>
			<path class="st8" d="M283.7,311.5c-6.1-0.6-11.3-4.7-12.8-11c-1.2-5.2,0-9.9,3.7-13.9c2.1-2.1,4.5-3.4,7.3-3.9
				c2.8-0.6,5.7-0.6,8.5,0.3c4.7,1.5,8.1,4.4,9.9,9.1c0.8,2.2,1,4.5,0.7,6.9c-0.4,3.3-1.8,6.2-4.3,8.5c-1.9,1.9-4.3,3-6.9,3.7
				c-0.6,0.1-1.2,0.3-1.8,0.4c-0.1,0-0.4,0.1-0.5,0.1c-1.2,0-2.3,0-3.6,0C284.1,311.5,284,311.5,283.7,311.5z M278.2,296.9
				c0,1.6,0.5,3,1.4,4.4c2.6,3.6,7.7,4.4,11.2,1.7c4.1-3,4.1-9.2,0-12.3c-1.8-1.4-3.9-1.8-6.1-1.5
				C280.7,290,278.2,293.3,278.2,296.9z"/>
			<path class="st8" d="M201.3,311.5c-1.2-0.1-2.5-0.4-3.7-0.8c-2.3-1-4-2.6-5-5c-0.5-1.2-0.7-2.5-0.8-3.7c-0.1-1.1-0.1-2.1-0.1-3.2
				c0-5,0-9.9,0-14.9c0-0.3,0-0.4,0-0.6c0-0.3,0-0.4,0.4-0.4c2.2,0,4.4,0,6.6,0h0.1c0.1,0,0.3,0.1,0.3,0.3c0,0.3,0,0.5,0,0.6
				c0,4.7,0,9.6,0,14.3c0,1,0,1.8,0.1,2.8c0.1,0.5,0.1,1,0.4,1.5c0.5,1.4,1.5,2.3,2.9,2.6c1,0.3,1.9,0.3,2.9,0
				c1.4-0.3,2.2-1.1,2.8-2.3c0.4-0.7,0.5-1.5,0.5-2.3c0-0.8,0.1-1.6,0.1-2.5c0-4.7,0-9.5,0-14.2c0-1-0.1-0.8,0.8-0.8
				c1.8,0,3.7,0,5.6,0c0.1,0,0.4,0,0.5,0s0.3,0.1,0.3,0.3c0,0.1,0,0.4,0,0.5c0,5.1,0,10.2,0,15.3c0,1.6-0.1,3-0.5,4.7
				c-0.1,0.7-0.4,1.5-0.6,2.2c-1,2.3-2.6,3.9-4.8,4.8c-1.1,0.5-2.3,0.7-3.6,0.8c-0.3,0-0.5,0-0.7,0.1c-1.2,0-2.6,0-3.7,0
				C201.8,311.5,201.5,311.5,201.3,311.5z"/>
			<path class="st8" d="M174.8,311.6c-0.4-0.1-0.7-0.1-1.1-0.3c-2.5-0.4-4.7-1.4-6.7-2.8c-0.1,0-0.1-0.1-0.3-0.1
				c1-1.9,2.1-3.9,3-5.7c0.3,0.1,0.5,0.3,0.6,0.5c1,0.7,1.9,1.5,3.2,1.8c1.2,0.5,2.5,0.6,3.7,0.4c0.6-0.1,1.1-0.4,1.6-0.8
				c0.6-0.6,0.8-1.5,0.6-2.3c-0.1-0.5-0.4-0.8-0.7-1.1c-0.4-0.4-0.8-0.6-1.4-0.7c-0.8-0.4-1.8-0.6-2.6-1c-0.8-0.3-1.6-0.6-2.5-0.8
				c-0.7-0.3-1.4-0.6-1.9-1.1c-1.5-1.1-2.3-2.6-2.6-4.3c-0.3-1.6-0.1-3.3,0.4-4.7c1-2.8,2.8-4.7,5.6-5.5c0.8-0.3,1.8-0.5,2.8-0.5
				c3.2-0.1,6.2,0.6,9.1,2.1c0.1,0,0.1,0.1,0.1,0.1s0,0,0.1,0.1c-1,1.8-1.8,3.7-2.8,5.5c-0.3-0.1-0.5-0.3-0.6-0.4
				c-1-0.7-2.2-1.2-3.4-1.4c-0.8-0.1-1.7,0-2.6,0.4c-0.6,0.4-1.1,0.8-1.2,1.5c-0.1,0.7,0,1.4,0.5,1.8c0.4,0.4,0.7,0.5,1.1,0.7
				c0.5,0.3,1.1,0.5,1.6,0.6c1.1,0.4,2.2,0.6,3.3,1.1c0.7,0.4,1.5,0.7,2.2,1.2c1.6,1.1,2.6,2.6,2.9,4.7c0.4,1.7,0.3,3.4-0.4,5.1
				c-0.6,1.9-1.8,3.4-3.6,4.5c-1.4,0.8-2.9,1.4-4.5,1.6c-0.3,0-0.5,0-0.7,0.1C176.9,311.6,175.8,311.6,174.8,311.6z"/>
			<path class="st8" d="M348,289.1c-0.3,0-0.5,0-0.8,0c-1.6,0-3,0-4.7,0c-0.3,0-0.4,0-0.4,0.4c0,0.3,0,0.4,0,0.6c0,6.7,0,13.2,0,20
				c0,1,0.1,0.8-0.8,0.8c-1.8,0-3.7,0-5.6,0c-0.3,0-0.4,0-0.6,0c-0.1,0-0.3-0.1-0.3-0.3c0-0.3,0-0.5,0-0.6c0-6.7,0-13.2,0-20
				c0-1,0.1-0.8-0.8-0.8c-1.5,0-2.8,0-4.3,0c-0.3,0-0.4,0-0.6,0c-0.1,0-0.1-0.1-0.3-0.1c0-0.1,0-0.3,0-0.3c0-1.7,0-3.4,0-5.1
				c0-0.1,0-0.3,0-0.3c0-0.1,0.1-0.1,0.1-0.3c0.1,0,0.3,0,0.4,0c6.1,0,12.3,0,18.3,0C348,285.1,348,287.1,348,289.1z"/>
			<path class="st9" d="M347.7,257.2c0-0.3,0-0.5,0.1-0.7C347.8,256.7,347.8,257.1,347.7,257.2C347.9,257.4,347.9,257.4,347.7,257.2
				z"/>
			<path class="st10" d="M348,251.2c0-0.3-0.1-0.4-0.1-0.6c0-0.1,0.1-0.1,0.1-0.3C348,250.8,348,251,348,251.2z"/>
			<path class="st9" d="M178,311.6c0.3-0.3,0.5-0.1,0.7-0.1c0,0.1,0.1,0.1,0.1,0.1C178.5,311.6,178.1,311.6,178,311.6z"/>
			<path class="st10" d="M201.3,311.5c0.3,0,0.5,0,0.6,0.1c-0.3,0-0.6,0-0.8,0C201.1,311.6,201.3,311.6,201.3,311.5z"/>
			<path class="st10" d="M283.7,311.5c0.3,0,0.4,0,0.5,0.1c-0.3,0-0.5,0-0.7,0C283.6,311.6,283.7,311.5,283.7,311.5z"/>
			<path class="st8" d="M263.6,253.9c0-6.8,0-13.8,0-20.5c0-0.8-0.1-0.7,0.7-0.7c5.4,0,10.6,0,16,0c1.8,0,3.7,0.3,5.4,0.8
				c0.8,0.3,1.6,0.6,2.3,1.1c1.8,1.2,3,2.9,3.7,5c0.7,2.5,0.7,4.7,0.3,7.2c-0.5,2.1-1.6,3.7-3.2,5c-0.3,0.3-0.6,0.5-1,0.7v0.1
				c0,0,0,0.1,0.1,0.1c0.7,0.1,1.5,0.4,2.1,0.6c0.8,0.3,1.7,0.7,2.5,1.2c1.7,1.1,2.8,2.6,3.4,4.7c0.7,2.6,0.7,5.4,0,8
				c-1.1,3.4-3.3,5.7-6.6,7c-1.6,0.6-3.2,1-4.7,1.2c-1.1,0.1-2.2,0.1-3.3,0.1c-5.6,0-11,0-16.7,0c-1,0-0.8,0.1-0.8-0.8
				C263.6,267.7,263.6,260.7,263.6,253.9z M274.9,262.2c0,1.2,0,2.5,0,3.7c0,0.3,0,0.5,0,0.6c0,0.1,0.1,0.3,0.3,0.3
				c0.7,0,1.4,0,2.1,0c1.1,0,2.2,0,3.3-0.3c0.8-0.1,1.7-0.4,2.6-0.7c1.2-0.6,1.8-1.5,2.1-2.8c0.1-0.6,0.1-1.2,0-1.8
				c-0.3-1-0.6-1.7-1.5-2.3c-0.4-0.3-0.8-0.5-1.4-0.6c-1.1-0.4-2.2-0.5-3.3-0.6c-1.2,0-2.5,0-3.7,0c-0.4,0-0.4,0-0.4,0.4
				C274.9,259.4,274.9,260.8,274.9,262.2z M274.9,245.1c0,0.6,0,1.4,0,1.9s0,1.2,0,1.8c0,0.3,0,0.4,0.3,0.4c1,0,2.1,0,3,0
				c0.7-0.1,1.5-0.3,2.1-0.6c1-0.5,1.5-1.2,1.7-2.3c0.1-0.5,0.1-0.8,0.1-1.4c0-1.9-1.1-3.2-2.9-3.7h-0.1c-1.4-0.4-2.6-0.3-4-0.3
				c-0.1,0-0.3,0.1-0.3,0.3c0,0.1,0,0.4,0,0.5C274.9,242.8,274.9,244,274.9,245.1z"/>
			<path class="st8" d="M258.8,275.3c-0.3,0-0.4,0-0.5,0c-3.6,0-7.2,0-10.7,0c-0.7,0-0.6,0-0.8-0.6c-0.7-2.1-1.5-4.1-2.2-6.3
				c-0.3-0.6-0.1-0.6-0.7-0.6c-5,0-9.9,0-14.9,0c-0.1,0-0.1,0-0.3,0c-0.3,0-0.4,0.1-0.5,0.4c-0.4,1-0.7,2.1-1.1,3
				c-0.4,1.1-0.7,2.2-1.1,3.4c-0.3,0.7-0.1,0.6-1,0.6c-0.9,0-1.7,0-2.6,0c-2.6,0-5.1,0-7.7,0c-0.3,0-0.5,0-0.7,0
				c-0.1-0.3,0-0.5,0.1-0.7c1.4-3.6,2.6-7.2,4-10.7c3.9-10.2,7.8-20.5,11.7-30.8c0.4-0.8,0.1-0.7,1-0.7c3.6,0,7,0,10.7,0
				c0.1,0,0.4,0,0.5,0c0.1,0,0.3,0.1,0.4,0.3c0.1,0.1,0.1,0.4,0.3,0.5c5.2,13.8,10.5,27.5,15.7,41.2
				C258.5,274.7,258.7,275,258.8,275.3z M231.5,259.4c1.1,0.1,9.2,0,9.8,0c0.1-0.3-0.1-0.4-0.1-0.6c-0.4-1.2-0.8-2.3-1.2-3.6
				c-1.1-3-2.2-6.1-3.2-9.2c0-0.1-0.1-0.4-0.1-0.5l-0.1-0.1c0,0-0.1,0-0.1,0.1s-0.1,0.3-0.1,0.4c-1.6,4.4-3,8.8-4.7,13.1
				C231.5,259,231.5,259.2,231.5,259.4z"/>
			<path class="st8" d="M328.5,310.7c-0.3,0.1-0.4,0.1-0.5,0.1c-2.6,0-5.2,0-7.9,0c-0.1,0-0.1,0-0.3,0c-0.3,0-0.4-0.1-0.5-0.3
				c-0.1-0.1-0.3-0.4-0.4-0.5c-1.9-3-3.9-6.1-5.9-9.2c-0.1-0.1-0.3-0.4-0.4-0.5c-0.3,0-0.1,0.1-0.1,0.3c0,0.1,0,0.3,0,0.3
				c0,3,0,6.1,0,9c0,1,0.1,0.8-0.8,0.8c-1.8,0-3.7,0-5.6,0c-0.3,0-0.4,0-0.6,0c-0.1,0-0.3-0.1-0.3-0.3c0-0.1,0-0.3,0-0.5
				c0-0.5,0-1,0-1.4c0-8.3,0-16.7,0-24.9c0-1-0.1-0.8,0.8-0.8c3.4,0,6.8,0,10.1,0c1.2,0,2.3,0.1,3.6,0.4c3.9,1.1,5.5,4.1,5.8,6.9
				c0.1,1.2,0.1,2.5-0.1,3.7c-0.5,2.2-1.7,3.7-3.7,4.7c-0.5,0.3-1,0.4-1.5,0.6c-0.1,0-0.4,0.1-0.6,0.3c0.4,0.6,0.8,1.1,1.2,1.7
				c0.4,0.5,0.8,1.1,1.2,1.6c0.4,0.5,0.8,1.1,1.2,1.6c0.4,0.5,0.8,1.1,1.2,1.6c0.4,0.5,0.8,1.1,1.2,1.6s0.8,1.1,1.2,1.6
				C327.6,309.7,328,310.1,328.5,310.7z M312.7,292c0,0.7,0,1.6,0,2.3c0,0.3,0,0.5,0,0.8c0,0.4,0,0.4,0.5,0.4c0.4,0,0.7,0,1.1,0
				c0.7,0,1.4-0.1,2.1-0.4c1.4-0.5,2.1-1.5,2.2-2.8c0.1-1.7-0.6-2.8-2.1-3.3c-0.1,0-0.1-0.1-0.3-0.1c-1.1-0.3-2.1-0.3-3.2-0.3
				c-0.1,0-0.3,0.1-0.3,0.3s0,0.4,0,0.5C312.7,290.2,312.7,291.1,312.7,292z"/>
			<path class="st8" d="M221.8,297c0-4.4,0-8.7,0-13.1c0-0.3,0-0.5,0-0.6c0-0.1,0.1-0.3,0.3-0.3c0.1,0,0.3,0,0.3,0
				c3.7,0,7.7,0,11.4,0c1.2,0,2.5,0.3,3.6,0.6c2.6,0.8,4.4,2.6,5.2,5.4c0.6,2.2,0.6,4.4,0,6.6c-0.8,3.2-2.9,5-6.1,5.7
				c-1,0.3-1.9,0.4-2.9,0.4c-1.2,0-2.6,0-3.7,0c-0.1,0-0.4,0-0.5,0s-0.3,0.1-0.3,0.3c0,0.3,0,0.4,0,0.6c0,2.6,0,5.1,0,7.8
				c0,0.7,0,0.6-0.7,0.6c-1.9,0-3.9,0-5.8,0c-0.1,0-0.4,0-0.5,0s-0.1-0.1-0.1-0.3c0-0.3,0-0.5,0-0.6
				C221.8,305.6,221.8,301.3,221.8,297z M228.9,292.2L228.9,292.2c0,1.1,0,2.1,0,3.2c0,0.3,0,0.4,0.3,0.4c0.8,0,1.8,0,2.6,0
				c0.5,0,0.8-0.1,1.2-0.3c1.1-0.4,1.8-1.1,2.1-2.2c0.1-0.5,0.1-0.8,0.1-1.4c-0.1-1.8-1.1-2.6-2.3-2.9c-0.1,0-0.4-0.1-0.5-0.1
				c-1.1-0.3-2.1-0.1-3.2-0.1c-0.4,0-0.4,0-0.4,0.4C228.9,290.3,228.9,291.3,228.9,292.2z"/>
			<path class="st8" d="M246.9,296.9c0-4.4,0-8.7,0-13.1c0-0.3,0-0.4,0-0.6c0-0.3,0-0.4,0.4-0.4c0.6,0,1.1,0,1.7,0c3,0,6.2,0,9.2,0
				c1.4,0,2.6,0.1,3.7,0.5c3.2,0.8,5.1,3,5.8,6.2c0.4,1.9,0.4,3.9-0.1,5.7c-0.7,2.9-2.6,4.7-5.6,5.7c-1.1,0.4-2.3,0.5-3.4,0.5
				c-1.2,0-2.6,0-3.7,0c-0.1,0-0.4,0-0.5,0c-0.3,0-0.3,0.1-0.3,0.4c0,0.3,0,0.4,0,0.6c0,2.6,0,5,0,7.6c0,0.3,0,0.4,0,0.6
				c0,0.1-0.1,0.3-0.3,0.3c-0.1,0-0.3,0-0.4,0c-2.1,0-4,0-6.1,0c-0.1,0-0.3,0-0.4,0s-0.1-0.1-0.3-0.1c0-0.3,0-0.5,0-0.6
				C246.9,305.6,246.9,301.3,246.9,296.9z M254.1,292.2c0,1.1,0,2.1,0,3.2c0,0.4,0,0.4,0.4,0.4c0.8,0,1.6,0,2.5,0
				c0.6,0,1.4-0.1,1.9-0.4c0.7-0.4,1.2-0.8,1.5-1.7c0.3-0.9,0.3-1.7,0-2.6c-0.3-0.8-0.8-1.5-1.6-1.8c-0.4-0.1-0.6-0.3-1-0.3
				c-1.1-0.3-2.2-0.1-3.3-0.1c0,0,0,0-0.1,0s-0.1,0.1-0.1,0.3c0,0.1,0,0.4,0,0.5C254.1,290.4,254.1,291.4,254.1,292.2z"/>
		</g>
		<g>
			<path class="st9" d="M348,222.8c-0.3,0.1-0.5,0-0.7,0c-29.7,0-59.5,0-89.2,0c-0.3,0-0.5,0-0.7,0c0-16.8,0-33.7,0-50.5
				c0.3-0.1,0.4-0.4,0.6-0.6c7.7-8.3,15.3-16.5,23.1-24.8c7-7.6,14.1-15.2,21.2-22.7c0.1-0.1,0.3-0.3,0.4-0.5c0-0.1,0-0.1,0-0.1
				c0.1,0,0.3,0,0.3,0c-0.1,0.1,0,0.3,0.1,0.4c0.5,0.6,1.1,1.2,1.6,1.7c14.2,15.3,28.5,30.7,42.8,46c0.3,0.3,0.4,0.5,0.6,0.6
				C348,189.1,348,206,348,222.8z"/>
			<path class="st10" d="M257.4,172.3c0,16.8,0,33.7,0,50.5c-0.3,0-0.5,0-0.8,0c-29.8,0-59.5,0-89.3,0c-0.3,0-0.6,0-0.8,0
				c0-16.9,0-33.7,0-50.6c0.1,0.1,0.1,0.1,0.3,0c0.3-0.3,0.5-0.5,0.6-0.7c9.6-10.3,19.3-20.7,28.9-31c5.1-5.5,10.2-11,15.2-16.4
				c0.1-0.1,0.3-0.3,0.4-0.4c0-0.1,0-0.1,0-0.3c0.1,0,0.3,0,0.3,0c-0.1,0.1,0,0.3,0.1,0.4c0.4,0.4,0.7,0.8,1.1,1.2
				c8.7,9.2,17.2,18.5,25.8,27.7c5.6,6.1,11.2,12,16.9,18.2C256.3,171.3,256.9,171.9,257.4,172.3z M171.4,182.9
				c0.1,0.1,0.1,0.3,0.3,0.3c1.9,2.1,4,3.9,6.3,5.6c2.1,1.5,4.3,2.6,6.6,3.6c3.6,1.2,7,1.5,10.7,0.6c2.5-0.6,4.7-1.6,6.7-2.8
				c3.2-1.9,5.9-4.4,8.5-7l0.1-0.1c0-0.1,0-0.1,0-0.3c-0.1-0.1-0.1-0.1-0.3-0.3c-1.7-1.8-3.6-3.4-5.5-5c-2.1-1.6-4.3-2.9-6.7-3.7
				c-3.9-1.5-7.8-1.8-12-0.7c-2.5,0.6-4.7,1.7-6.9,3c-2.9,1.8-5.5,4.1-7.8,6.6C171.5,182.8,171.5,182.8,171.4,182.9z M233,193.5
				c1.7,0,3.4-0.3,5.1-0.7c2.5-0.7,4.7-1.8,6.7-3.2c2.8-1.8,5.2-4,7.6-6.3l0.1-0.1c0.1-0.1,0.1-0.1,0-0.3c0-0.1-0.1-0.1-0.3-0.3
				c-1.9-2.1-4-3.9-6.2-5.5c-2.1-1.5-4.4-2.6-6.8-3.6c-3.4-1.2-6.9-1.5-10.5-0.6c-2.3,0.5-4.5,1.5-6.6,2.6c-3.3,1.9-6.2,4.4-8.8,7.2
				l-0.1,0.1c0,0.1,0,0.1,0,0.3c0.1,0.1,0.3,0.3,0.4,0.5c1.5,1.5,2.9,2.9,4.7,4.3c1.8,1.5,3.9,2.8,5.9,3.7
				C227.1,192.7,229.9,193.5,233,193.5z"/>
			<path class="st11" d="M171.4,182.9c0.1-0.1,0.1-0.3,0.3-0.3c2.3-2.5,4.8-4.7,7.8-6.6c2.2-1.4,4.5-2.5,6.9-3c4-1,8-0.7,12,0.7
				c2.5,1,4.7,2.3,6.7,3.7c1.9,1.5,3.7,3.2,5.5,5c0.1,0.1,0.1,0.1,0.3,0.3c0,0.1,0,0.1,0,0.3l-0.1,0.1c-2.6,2.6-5.2,5.1-8.5,7
				c-2.1,1.2-4.4,2.2-6.7,2.8c-3.7,0.8-7.3,0.6-10.7-0.6c-2.5-0.8-4.7-2.1-6.6-3.6c-2.3-1.6-4.4-3.6-6.3-5.6
				C171.5,183.2,171.5,183,171.4,182.9z M192.2,176.6c0.3,0.3,0.4,0.4,0.5,0.5c0.8,1.1,0.4,2.6-0.8,3.2c-0.6,0.3-1.2,0.3-1.8-0.1
				c-0.4-0.3-0.4-0.3-0.5,0.3c-0.5,1.4-0.5,2.8-0.3,4.1c1,4.5,5.2,7.2,9.6,6.3c3-0.6,5.1-2.5,6.1-5.4c1-2.9,0.5-5.6-1.6-8
				c-1.9-2.2-4.5-3-7.4-2.6C194.6,175.1,193.4,175.6,192.2,176.6z"/>
			<path class="st11" d="M233,193.5c-3.2,0-5.9-0.7-8.7-1.9c-2.2-1-4.1-2.3-5.9-3.7c-1.6-1.4-3.2-2.6-4.7-4.3
				c-0.1-0.1-0.3-0.3-0.4-0.5c0,0,0-0.1,0-0.3l0.1-0.1c2.6-2.8,5.5-5.2,8.8-7.2c2.1-1.2,4.3-2.1,6.6-2.6c3.6-0.8,7-0.5,10.5,0.6
				c2.5,0.8,4.7,2.1,6.8,3.6c2.3,1.6,4.3,3.6,6.2,5.5c0.1,0.1,0.1,0.1,0.3,0.3c0.1,0.1,0,0.1,0,0.3l-0.1,0.1
				c-2.3,2.5-4.7,4.7-7.6,6.3c-2.1,1.4-4.4,2.5-6.7,3.2C236.5,193.2,234.7,193.5,233,193.5z M231.5,180c-1.4,3.3-0.3,7.9,3.7,10.1
				c3.7,2.1,8.4,0.8,10.7-2.8c2.3-3.6,1.5-8.3-1.9-10.9c-3.4-2.6-8-1.8-9.9,0.1c1,1.1,1.1,2.1,0.5,3C234,180.4,233,180.7,231.5,180z
				"/>
			<path class="st8" d="M192.2,176.6c1.1-0.8,2.3-1.5,3.7-1.6c2.9-0.4,5.5,0.4,7.4,2.6c2.1,2.3,2.6,5.1,1.6,8c-1,2.9-3,4.7-6.1,5.4
				c-4.4,0.8-8.7-1.9-9.6-6.3c-0.3-1.4-0.3-2.8,0.3-4.1c0.1-0.4,0.1-0.4,0.5-0.3c0.6,0.3,1.2,0.4,1.8,0.1c1.2-0.5,1.7-2.1,0.8-3.2
				C192.6,177,192.4,176.7,192.2,176.6z"/>
			<path class="st8" d="M231.5,180c1.4,0.6,2.5,0.5,3-0.5c0.6-0.8,0.5-1.9-0.5-3c1.9-1.9,6.5-2.8,9.9-0.1c3.3,2.6,4.1,7.3,1.9,10.9
				c-2.3,3.6-6.9,4.7-10.7,2.8C231.3,187.9,230.2,183.3,231.5,180z"/>
		</g>
	</g>
</g>
<g>
	<path class="st9" d="M448.9,140.4c-4.2,79.5-23.2,154.5-68.9,221c-29.3,42.8-67.7,74.8-115.6,95.4c-5.4,2.3-9.9,2.2-15.2-0.1
		c-54-23.4-94.8-61.5-125.3-111.3C97.5,302,81.4,254.9,72.1,205.2c-4.5-24.1-7.3-48.4-7.2-72.9c0-4,1.3-6.2,5.5-6.8
		c35.9-5.3,69.6-17.3,102.2-32.9c26.7-12.8,51.9-27.9,73.7-48.2c2.8-2.6,5.3-5.5,8.1-8.2c2.3-2.2,4.4-2.5,6.8,0.1
		C286.9,64,319,82,353,97c28.5,12.6,58,22.4,89.1,26.8c5.1,0.7,7.5,2.8,6.8,8.1C448.6,134.7,448.9,137.5,448.9,140.4z M256.4,37.4
		c-3.5,4-6.8,8.4-10.9,12.1c-23.2,21-50,36.5-78.3,49.4c-30.4,13.8-61.7,24.8-94.9,29.6c-3.8,0.6-4.3,2.6-4.3,5.8
		c0.5,24.5,3.1,48.8,7.8,72.9c9.8,51,26.9,99.2,55.1,143c30,46.6,69.5,82.2,121,103.7c2.8,1.2,7.1,1.3,9.8,0.1
		c9.9-4.3,19.8-8.9,29.1-14.2c53.2-30.6,89.8-75.9,115.3-130.9c24.9-53.7,37-110.5,39.6-169.5c0.5-11.4,0.5-11.4-11.1-13.2
		c-0.3-0.1-0.7-0.1-1-0.2C367.7,111.9,307.3,86.2,256.4,37.4z"/>
	<path class="st12" d="M256.4,37.4c50.9,48.8,111.3,74.5,177.4,88.5c0.3,0.1,0.7,0.1,1,0.2c11.5,1.9,11.6,1.9,11.1,13.2
		c-2.6,59-14.7,115.8-39.6,169.5c-25.5,55-62.1,100.4-115.3,130.9c-9.4,5.4-19.2,9.9-29.1,14.2c-2.8,1.2-7,1.1-9.8-0.1
		c-51.4-21.6-91-57.2-121-103.7c-28.2-43.8-45.3-92-55.1-143c-4.6-24.1-7.3-48.4-7.8-72.9c-0.1-3.2,0.4-5.3,4.3-5.8
		c33.2-4.9,64.6-15.8,94.9-29.6c28.3-12.9,55.1-28.3,78.3-49.4C249.6,45.8,252.9,41.3,256.4,37.4z M256.4,58.7
		c-3.8,4.3-7.6,9-11.8,13.2c-17.8,17.8-39.1,30.4-61.6,41.1c-25.9,12.4-52.9,21.8-81.4,26.3c-10.4,1.6-12.1,3.1-11.5,13.5
		c0.9,15.9,1.7,31.9,4,47.7c7,48.8,22.3,94.8,49,136.6c26.7,41.7,62.2,73.1,108.5,91.6c3.2,1.3,7.7,1.2,10.9-0.1
		c21.1-8.1,40.3-19.7,57.8-34.2c36.5-30.2,60.9-68.8,77.8-112.6c15.2-39.3,23.2-80.1,25.6-122.1c0.4-6.3-0.5-12.7-0.8-18.3
		C358.7,129.4,302.1,105.3,256.4,58.7z"/>
	<path class="st12" d="M257,69.3c0,0,67,66,159,78.5c0,0-0.4,202.5-158.9,276.5c0,0-156.6-61.5-160.6-277
		C96.5,147.3,207.1,129.8,257,69.3z"/>
	<path class="st10" d="M256.4,58.7c45.7,46.6,102.3,70.8,166.4,82.7c0.3,5.6,1.2,12,0.8,18.3c-2.4,42-10.5,82.8-25.6,122.1
		c-16.9,43.7-41.3,82.3-77.8,112.6c-17.4,14.5-36.6,26.1-57.8,34.2c-3.2,1.2-7.7,1.3-10.9,0.1c-46.2-18.5-81.8-49.9-108.5-91.6
		c-26.7-41.8-42-87.8-49-136.6c-2.3-15.8-3.1-31.8-4-47.7c-0.6-10.4,1.1-11.8,11.5-13.5c28.5-4.5,55.4-13.9,81.4-26.3
		c22.5-10.8,43.8-23.3,61.6-41.1C248.8,67.6,252.6,63,256.4,58.7z M104.1,153.9c0.9,10.7,1.4,21.5,2.7,32.2
		c4.9,43.6,16.7,85.1,37.4,123.9c24.5,46.1,59.2,81.7,107.5,103.2c3.6,1.6,6.7,2.1,10.3,0.1c6.1-3.3,12.6-6,18.7-9.5
		c44.2-24.9,74.3-62.4,95.4-107.7c16.5-35.3,25.9-72.6,30.8-111.1c1.3-10.4,1.8-20.8,2.7-31.2c-57.5-12-108.7-35.2-152.4-73.2
		C213.7,120.7,161.8,142.2,104.1,153.9z"/>
	<g>
		<path class="st7" d="M176.6,258.1c0.1-0.1,0.3-0.1,0.6-0.1c3.1,0,6.4,0,9.4,0c0.4,0,0.7,0.1,0.9,0.4c4.5,5.8,9.2,11.6,13.7,17.4
			c1.4,2,3.1,3.8,4.5,5.9c0.1,0.1,0.3,0.3,0.3,0.4h0.1l0,0c0-0.3,0-0.3,0-0.6c0-2.8,0-5.7,0-8.5c0-4.7,0-9.5,0-14.2
			c0-0.3,0-0.4,0-0.6c0-0.1,0.1-0.3,0.3-0.3c0.1,0,0.3,0,0.4,0c3.1,0,6.1,0,9.1,0c0.6,0,0.6,0,0.6,0.6c0,7,0,14,0,21
			c0,5.8,0,11.5,0,17.4c0,0.3,0,0.4,0,0.6c0,0.3-0.1,0.3-0.3,0.3c-0.1,0-0.3,0-0.4,0c-3.1,0-6,0-9.1,0c-0.1,0-0.3,0-0.3,0
			c-0.3,0-0.4-0.1-0.6-0.3c-1.1-1.4-2.3-2.8-3.4-4.3c-5-6.4-9.9-12.6-14.9-19.1c-0.1-0.3-0.3-0.3-0.4-0.6c-0.3,0-0.1,0.3-0.1,0.3
			c0,0.3,0,0.4,0,0.6c0,7.5,0,15,0,22.5c0,0.9,0.1,0.8-0.8,0.8c-3.3,0-6.5,0-9.8,0C176.6,284.5,176.6,271.3,176.6,258.1z"/>
		<path class="st7" d="M345,280.9c0,0.9-0.3,1.8-0.4,2.7c-1.8,6.1-5.5,10.5-11.3,13.2c-2.3,1-4.7,1.7-7.2,2c-2,0.3-4,0.3-5.9,0
			c-4.4-0.6-8.4-2.1-11.6-5c-3.6-3.1-5.8-7-6.7-11.6c-0.8-4.2-0.6-8.4,1.1-12.3c2.5-6,7-9.9,13.1-11.9c1.7-0.6,3.5-0.9,5.3-1
			c2-0.1,3.7-0.1,5.5,0.3c5.7,0.8,10.4,3.3,14,7.7c2.1,2.7,3.5,5.8,4.2,9.2c0,0.3,0,0.6,0.1,0.9c0,0.3,0.1,0.4,0.1,0.6
			c0,1.6,0,3.3,0,4.8C345,280.5,345,280.7,345,280.9z M323.3,266.9c-1.1,0-2.1,0.1-3.3,0.4c-5.2,1.4-8.7,6.5-7.8,12.3
			c0.4,2.8,1.8,5.1,4.1,6.8c2.7,2,5.8,2.8,9.2,2.1c5.1-0.9,8.7-5.1,9.1-9.8c0.3-2.4-0.3-4.5-1.4-6.5
			C330.7,268.7,327.5,267,323.3,266.9z"/>
		<path class="st8" d="M285.5,331.4c-5.7-0.6-10.5-4.4-11.9-10.2c-1.1-4.8,0-9.2,3.5-12.9c2-2,4.2-3.1,6.8-3.6
			c2.6-0.6,5.3-0.6,7.9,0.3c4.4,1.4,7.5,4.1,9.2,8.5c0.8,2,0.9,4.2,0.7,6.4c-0.3,3.1-1.7,5.8-4,7.9c-1.8,1.8-4,2.8-6.4,3.5
			c-0.6,0.1-1.1,0.3-1.7,0.3c-0.1,0-0.3,0.1-0.4,0.1c-1.1,0-2.1,0-3.3,0C285.9,331.4,285.8,331.4,285.5,331.4z M280.4,317.8
			c0,1.4,0.4,2.8,1.3,4.1c2.4,3.3,7.1,4.1,10.4,1.6c3.8-2.8,3.8-8.6,0-11.4c-1.7-1.3-3.6-1.7-5.7-1.4
			C282.7,311.4,280.4,314.5,280.4,317.8z"/>
		<path class="st8" d="M209,331.4c-1.1-0.1-2.3-0.3-3.4-0.8c-2.1-0.9-3.7-2.4-4.7-4.7c-0.4-1.1-0.7-2.3-0.8-3.4c-0.1-1-0.1-2-0.1-3
			c0-4.7,0-9.2,0-13.8c0-0.3,0-0.3,0-0.6s0-0.3,0.3-0.3c2,0,4.1,0,6.1,0h0.1c0.1,0,0.3,0.1,0.3,0.3c0,0.3,0,0.4,0,0.6
			c0,4.4,0,8.9,0,13.3c0,0.9,0,1.7,0.1,2.6c0.1,0.4,0.1,0.9,0.3,1.4c0.4,1.3,1.4,2.1,2.7,2.4c0.9,0.3,1.8,0.3,2.7,0
			c1.3-0.3,2-1,2.6-2.1c0.3-0.7,0.4-1.4,0.4-2.1c0-0.8,0.1-1.4,0.1-2.3c0-4.4,0-8.8,0-13.2c0-0.9-0.1-0.8,0.8-0.8c1.7,0,3.5,0,5.2,0
			c0.1,0,0.3,0,0.4,0c0.1,0,0.3,0.1,0.3,0.3c0,0.1,0,0.3,0,0.4c0,4.7,0,9.5,0,14.2c0,1.4-0.1,2.8-0.4,4.3c-0.1,0.7-0.3,1.4-0.6,2
			c-0.9,2.1-2.4,3.6-4.5,4.5c-1,0.4-2.1,0.7-3.3,0.8c-0.3,0-0.4,0-0.7,0.1c-1.1,0-2.4,0-3.5,0C209.4,331.4,209.1,331.4,209,331.4z"
			/>
		<path class="st8" d="M184.3,331.4c-0.3-0.1-0.7-0.1-1-0.3c-2.3-0.3-4.3-1.3-6.2-2.6c-0.1,0-0.1-0.1-0.3-0.1c0.9-1.8,2-3.6,2.8-5.3
			c0.3,0.1,0.4,0.3,0.6,0.4c0.9,0.7,1.8,1.4,3,1.7c1.1,0.4,2.3,0.6,3.5,0.3c0.6-0.1,1-0.3,1.4-0.8c0.6-0.6,0.8-1.4,0.6-2.1
			c-0.1-0.4-0.3-0.8-0.7-1c-0.3-0.3-0.8-0.6-1.3-0.7c-0.8-0.3-1.7-0.6-2.5-0.9c-0.8-0.3-1.4-0.6-2.3-0.8c-0.7-0.3-1.3-0.6-1.8-1
			c-1.4-1-2.1-2.4-2.4-4c-0.3-1.4-0.1-3.1,0.3-4.4c0.9-2.6,2.6-4.3,5.2-5.1c0.8-0.3,1.7-0.4,2.6-0.4c3-0.1,5.8,0.6,8.5,2
			c0.1,0,0.1,0.1,0.1,0.1s0,0,0.1,0.1c-0.9,1.7-1.7,3.4-2.6,5.1c-0.3-0.1-0.4-0.3-0.6-0.3c-0.9-0.7-2-1.1-3.1-1.3
			c-0.8-0.1-1.6,0-2.4,0.3c-0.6,0.3-1,0.8-1.1,1.4c-0.1,0.7,0,1.3,0.4,1.7c0.3,0.3,0.7,0.4,1,0.7c0.4,0.3,1,0.4,1.4,0.6
			c1,0.3,2,0.6,3.1,1c0.7,0.3,1.4,0.7,2,1.1c1.4,1,2.4,2.5,2.7,4.3c0.3,1.6,0.3,3.1-0.3,4.7c-0.6,1.8-1.7,3.1-3.3,4.2
			c-1.3,0.8-2.7,1.3-4.2,1.4c-0.3,0-0.4,0-0.7,0.1C186.2,331.4,185.2,331.4,184.3,331.4z"/>
		<path class="st8" d="M345.2,310.6c-0.3,0-0.4,0-0.8,0c-1.4,0-2.8,0-4.3,0c-0.3,0-0.3,0-0.3,0.3c0,0.3,0,0.3,0,0.6
			c0,6.2,0,12.3,0,18.6c0,0.9,0.1,0.8-0.8,0.8c-1.7,0-3.5,0-5.2,0c-0.3,0-0.3,0-0.6,0c-0.1,0-0.3-0.1-0.3-0.3c0-0.3,0-0.4,0-0.6
			c0-6.2,0-12.3,0-18.6c0-0.9,0.1-0.8-0.8-0.8c-1.4,0-2.6,0-4,0c-0.3,0-0.3,0-0.6,0c-0.1,0-0.1-0.1-0.3-0.1c0-0.1,0-0.3,0-0.3
			c0-1.6,0-3.1,0-4.7c0-0.1,0-0.3,0-0.3c0-0.1,0.1-0.1,0.1-0.3c0.1,0,0.3,0,0.3,0c5.7,0,11.4,0,17,0
			C345.2,306.8,345.2,308.7,345.2,310.6z"/>
		<path class="st9" d="M345,280.9c0-0.3,0-0.4,0.1-0.7C345.1,280.5,345.1,280.8,345,280.9C345.2,281.1,345.2,281.1,345,280.9z"/>
		<path class="st10" d="M345.2,275.4c0-0.3-0.1-0.3-0.1-0.6c0-0.1,0.1-0.1,0.1-0.3C345.2,275,345.2,275.1,345.2,275.4z"/>
		<path class="st9" d="M187.3,331.4c0.3-0.3,0.4-0.1,0.7-0.1c0,0.1,0.1,0.1,0.1,0.1C187.8,331.4,187.4,331.4,187.3,331.4z"/>
		<path class="st10" d="M209,331.4c0.3,0,0.4,0,0.6,0.1c-0.3,0-0.6,0-0.8,0C208.8,331.4,209,331.4,209,331.4z"/>
		<path class="st10" d="M285.5,331.4c0.3,0,0.3,0,0.4,0.1c-0.3,0-0.4,0-0.7,0C285.5,331.4,285.5,331.4,285.5,331.4z"/>
		<path class="st8" d="M266.9,277.8c0-6.4,0-12.8,0-19.1c0-0.8-0.1-0.7,0.7-0.7c5,0,9.8,0,14.8,0c1.7,0,3.4,0.3,5,0.8
			c0.8,0.3,1.4,0.6,2.1,1c1.7,1.1,2.8,2.7,3.4,4.7c0.7,2.3,0.7,4.4,0.3,6.7c-0.4,2-1.4,3.5-3,4.7c-0.3,0.3-0.6,0.4-0.9,0.7v0.1
			c0,0,0,0.1,0.1,0.1c0.7,0.1,1.4,0.3,2,0.6c0.8,0.3,1.6,0.7,2.3,1.1c1.6,1,2.6,2.5,3.1,4.3c0.7,2.5,0.7,5,0,7.5
			c-1,3.1-3.1,5.3-6.1,6.5c-1.4,0.6-3,0.9-4.4,1.1c-1,0.1-2,0.1-3.1,0.1c-5.2,0-10.3,0-15.5,0c-0.9,0-0.8,0.1-0.8-0.8
			C266.9,290.7,266.9,284.2,266.9,277.8z M277.3,285.6c0,1.1,0,2.3,0,3.4c0,0.3,0,0.4,0,0.6c0,0.1,0.1,0.3,0.3,0.3c0.7,0,1.3,0,2,0
			c1,0,2,0,3.1-0.3c0.8-0.1,1.6-0.3,2.4-0.7c1.1-0.6,1.7-1.4,2-2.6c0.1-0.6,0.1-1.1,0-1.7c-0.3-0.9-0.6-1.6-1.4-2.1
			c-0.3-0.3-0.8-0.4-1.3-0.6c-1-0.3-2-0.4-3.1-0.6c-1.1,0-2.3,0-3.4,0c-0.3,0-0.3,0-0.3,0.3C277.3,282.9,277.3,284.3,277.3,285.6z
			 M277.3,269.7c0,0.6,0,1.3,0,1.8s0,1.1,0,1.7c0,0.3,0,0.3,0.3,0.3c0.9,0,2,0,2.8,0c0.7-0.1,1.4-0.3,2-0.6c0.9-0.4,1.4-1.1,1.6-2.1
			c0.1-0.4,0.1-0.8,0.1-1.3c0-1.8-1-3-2.7-3.5h-0.1c-1.3-0.3-2.5-0.3-3.7-0.3c-0.1,0-0.3,0.1-0.3,0.3c0,0.1,0,0.3,0,0.4
			C277.3,267.6,277.3,268.7,277.3,269.7z"/>
		<path class="st8" d="M262.4,297.8c-0.3,0-0.3,0-0.4,0c-3.3,0-6.7,0-9.9,0c-0.7,0-0.6,0-0.8-0.6c-0.7-2-1.4-3.8-2-5.9
			c-0.3-0.6-0.1-0.6-0.7-0.6c-4.7,0-9.2,0-13.8,0c-0.1,0-0.1,0-0.3,0c-0.3,0-0.3,0.1-0.4,0.3c-0.3,0.9-0.7,2-1,2.8
			c-0.3,1-0.7,2-1,3.1c-0.3,0.7-0.1,0.6-0.9,0.6s-1.6,0-2.4,0c-2.4,0-4.7,0-7.1,0c-0.3,0-0.4,0-0.7,0c-0.1-0.3,0-0.4,0.1-0.7
			c1.3-3.3,2.5-6.7,3.7-9.9c3.6-9.5,7.2-19.1,10.9-28.6c0.3-0.8,0.1-0.7,0.9-0.7c3.3,0,6.5,0,9.9,0c0.1,0,0.3,0,0.4,0
			c0.1,0,0.3,0.1,0.3,0.3c0.1,0.1,0.1,0.3,0.3,0.4c4.8,12.8,9.8,25.5,14.6,38.3C262.1,297.2,262.3,297.4,262.4,297.8z M237,282.9
			c1,0.1,8.6,0,9.1,0c0.1-0.3-0.1-0.3-0.1-0.6c-0.3-1.1-0.8-2.1-1.1-3.3c-1-2.8-2-5.7-3-8.6c0-0.1-0.1-0.3-0.1-0.4l-0.1-0.1
			c0,0-0.1,0-0.1,0.1s-0.1,0.3-0.1,0.3c-1.4,4.1-2.8,8.1-4.3,12.2C237,282.6,237,282.8,237,282.9z"/>
		<path class="st8" d="M327.2,330.7c-0.3,0.1-0.3,0.1-0.4,0.1c-2.5,0-4.8,0-7.4,0c-0.1,0-0.1,0-0.3,0c-0.3,0-0.3-0.1-0.4-0.3
			c-0.1-0.1-0.3-0.3-0.3-0.4c-1.8-2.8-3.6-5.7-5.5-8.6c-0.1-0.1-0.3-0.3-0.3-0.4c-0.3,0-0.1,0.1-0.1,0.3c0,0.1,0,0.3,0,0.3
			c0,2.8,0,5.7,0,8.4c0,0.9,0.1,0.8-0.8,0.8c-1.7,0-3.5,0-5.2,0c-0.3,0-0.3,0-0.6,0c-0.1,0-0.3-0.1-0.3-0.3c0-0.1,0-0.3,0-0.4
			c0-0.4,0-0.9,0-1.3c0-7.7,0-15.5,0-23.1c0-0.9-0.1-0.8,0.8-0.8c3.1,0,6.4,0,9.4,0c1.1,0,2.1,0.1,3.3,0.3c3.6,1,5.1,3.8,5.4,6.4
			c0.1,1.1,0.1,2.3-0.1,3.4c-0.4,2-1.6,3.5-3.5,4.4c-0.4,0.3-0.9,0.3-1.4,0.6c-0.1,0-0.3,0.1-0.6,0.3c0.3,0.6,0.8,1,1.1,1.6
			c0.3,0.4,0.8,1,1.1,1.4c0.3,0.4,0.8,1,1.1,1.4s0.8,1,1.1,1.4c0.3,0.4,0.8,1,1.1,1.4s0.8,1,1.1,1.4
			C326.3,329.7,326.7,330.1,327.2,330.7z M312.4,313.3c0,0.7,0,1.4,0,2.1c0,0.3,0,0.4,0,0.8c0,0.3,0,0.3,0.4,0.3c0.3,0,0.7,0,1,0
			c0.7,0,1.3-0.1,2-0.3c1.3-0.4,2-1.4,2-2.6c0.1-1.6-0.6-2.6-2-3.1c-0.1,0-0.1-0.1-0.3-0.1c-1-0.3-2-0.3-3-0.3
			c-0.1,0-0.3,0.1-0.3,0.3s0,0.3,0,0.4C312.4,311.6,312.4,312.4,312.4,313.3z"/>
		<path class="st8" d="M228,317.9c0-4.1,0-8.1,0-12.1c0-0.3,0-0.4,0-0.6c0-0.1,0.1-0.3,0.3-0.3c0.1,0,0.3,0,0.3,0
			c3.5,0,7.1,0,10.6,0c1.1,0,2.3,0.3,3.3,0.6c2.5,0.8,4.1,2.5,4.8,5c0.6,2,0.6,4.1,0,6.1c-0.8,3-2.7,4.7-5.7,5.3
			c-0.9,0.3-1.8,0.3-2.7,0.3c-1.1,0-2.4,0-3.5,0c-0.1,0-0.3,0-0.4,0s-0.3,0.1-0.3,0.3c0,0.3,0,0.3,0,0.6c0,2.4,0,4.7,0,7.2
			c0,0.7,0,0.6-0.7,0.6c-1.8,0-3.6,0-5.4,0c-0.1,0-0.3,0-0.4,0c-0.1,0-0.1-0.1-0.1-0.3c0-0.3,0-0.4,0-0.6
			C228,325.9,228,321.9,228,317.9z M234.6,313.5L234.6,313.5c0,1,0,2,0,3c0,0.3,0,0.3,0.3,0.3c0.8,0,1.7,0,2.5,0
			c0.4,0,0.8-0.1,1.1-0.3c1-0.3,1.7-1,2-2c0.1-0.4,0.1-0.8,0.1-1.3c-0.1-1.7-1-2.4-2.1-2.7c-0.1,0-0.3-0.1-0.4-0.1
			c-1-0.3-2-0.1-3-0.1c-0.3,0-0.3,0-0.3,0.3C234.6,311.7,234.6,312.6,234.6,313.5z"/>
		<path class="st8" d="M251.3,317.8c0-4.1,0-8.1,0-12.1c0-0.3,0-0.3,0-0.6s0-0.3,0.3-0.3c0.6,0,1,0,1.6,0c2.8,0,5.8,0,8.6,0
			c1.3,0,2.4,0.1,3.5,0.4c3,0.8,4.7,2.8,5.4,5.8c0.3,1.8,0.3,3.6-0.1,5.3c-0.7,2.7-2.5,4.4-5.2,5.3c-1,0.3-2.1,0.4-3.1,0.4
			c-1.1,0-2.4,0-3.5,0c-0.1,0-0.3,0-0.4,0c-0.3,0-0.3,0.1-0.3,0.3c0,0.3,0,0.3,0,0.6c0,2.4,0,4.7,0,7c0,0.3,0,0.3,0,0.6
			c0,0.1-0.1,0.3-0.3,0.3c-0.1,0-0.3,0-0.3,0c-2,0-3.7,0-5.7,0c-0.1,0-0.3,0-0.3,0s-0.1-0.1-0.3-0.1c0-0.3,0-0.4,0-0.6
			C251.3,325.9,251.3,321.9,251.3,317.8z M258,313.5c0,1,0,2,0,3c0,0.3,0,0.3,0.3,0.3c0.8,0,1.4,0,2.3,0c0.6,0,1.3-0.1,1.8-0.3
			c0.7-0.3,1.1-0.8,1.4-1.6s0.3-1.6,0-2.5c-0.3-0.8-0.8-1.4-1.4-1.7c-0.3-0.1-0.6-0.3-0.9-0.3c-1-0.3-2-0.1-3.1-0.1c0,0,0,0-0.1,0
			s-0.1,0.1-0.1,0.3c0,0.1,0,0.3,0,0.4C258,311.8,258,312.7,258,313.5z"/>
	</g>
	<g>
		<path class="st9" d="M345.2,248.9c-0.3,0.1-0.4,0-0.7,0c-27.6,0-55.3,0-82.8,0c-0.3,0-0.4,0-0.7,0c0-15.6,0-31.3,0-46.9
			c0.3-0.1,0.3-0.3,0.6-0.6c7.1-7.7,14.2-15.3,21.5-23.1c6.5-7,13.1-14.2,19.7-21.1c0.1-0.1,0.3-0.3,0.3-0.4c0-0.1,0-0.1,0-0.1
			c0.1,0,0.3,0,0.3,0c-0.1,0.1,0,0.3,0.1,0.3c0.4,0.6,1,1.1,1.4,1.6c13.2,14.2,26.5,28.5,39.8,42.7c0.3,0.3,0.3,0.4,0.6,0.6
			C345.2,217.6,345.2,233.3,345.2,248.9z"/>
		<path class="st10" d="M261,202c0,15.6,0,31.3,0,46.9c-0.3,0-0.4,0-0.8,0c-27.7,0-55.3,0-82.9,0c-0.3,0-0.6,0-0.8,0
			c0-15.7,0-31.3,0-47c0.1,0.1,0.1,0.1,0.3,0c0.3-0.3,0.4-0.4,0.6-0.7c8.9-9.6,17.9-19.2,26.9-28.8c4.7-5.1,9.5-10.2,14.2-15.3
			c0.1-0.1,0.3-0.3,0.3-0.3c0-0.1,0-0.1,0-0.3c0.1,0,0.3,0,0.3,0c-0.1,0.1,0,0.3,0.1,0.3c0.3,0.3,0.7,0.8,1,1.1
			c8.1,8.6,15.9,17.2,24,25.8c5.2,5.7,10.4,11.2,15.7,16.9C260.1,201.1,260.6,201.6,261,202z M181.2,211.9c0.1,0.1,0.1,0.3,0.3,0.3
			c1.8,2,3.7,3.6,5.9,5.2c2,1.4,4,2.5,6.1,3.3c3.3,1.1,6.5,1.4,9.9,0.6c2.3-0.6,4.3-1.4,6.2-2.6c3-1.8,5.5-4.1,7.9-6.5l0.1-0.1
			c0-0.1,0-0.1,0-0.3c-0.1-0.1-0.1-0.1-0.3-0.3c-1.6-1.7-3.3-3.1-5.1-4.7c-2-1.4-4-2.7-6.2-3.5c-3.6-1.4-7.2-1.7-11.1-0.7
			c-2.3,0.6-4.4,1.6-6.4,2.8c-2.7,1.7-5.1,3.8-7.2,6.1C181.2,211.8,181.2,211.8,181.2,211.9z M238.4,221.7c1.6,0,3.1-0.3,4.7-0.7
			c2.3-0.7,4.3-1.7,6.2-3c2.6-1.7,4.8-3.7,7-5.9l0.1-0.1c0.1-0.1,0.1-0.1,0-0.3c0-0.1-0.1-0.1-0.3-0.3c-1.8-2-3.7-3.6-5.8-5.1
			c-2-1.4-4.1-2.5-6.4-3.3c-3.1-1.1-6.4-1.4-9.8-0.6c-2.1,0.4-4.2,1.4-6.1,2.5c-3.1,1.8-5.8,4.1-8.1,6.7l-0.1,0.1c0,0.1,0,0.1,0,0.3
			c0.1,0.1,0.3,0.3,0.3,0.4c1.4,1.4,2.7,2.7,4.3,4c1.7,1.4,3.6,2.6,5.5,3.5C232.9,221,235.5,221.7,238.4,221.7z"/>
		<path class="st11" d="M181.2,211.9c0.1-0.1,0.1-0.3,0.3-0.3c2.1-2.3,4.5-4.4,7.2-6.1c2-1.3,4.2-2.3,6.4-2.8
			c3.7-0.9,7.5-0.7,11.1,0.7c2.3,0.9,4.3,2.1,6.2,3.5c1.8,1.4,3.5,3,5.1,4.7c0.1,0.1,0.1,0.1,0.3,0.3c0,0.1,0,0.1,0,0.3l-0.1,0.1
			c-2.4,2.5-4.8,4.7-7.9,6.5c-2,1.1-4.1,2-6.2,2.6c-3.4,0.8-6.8,0.6-9.9-0.6c-2.3-0.8-4.3-2-6.1-3.3c-2.1-1.4-4.1-3.3-5.9-5.2
			C181.2,212.1,181.2,212,181.2,211.9z M200.5,206c0.3,0.3,0.3,0.3,0.4,0.4c0.8,1,0.3,2.5-0.8,3c-0.6,0.3-1.1,0.3-1.7-0.1
			c-0.3-0.3-0.3-0.3-0.4,0.3c-0.4,1.3-0.4,2.6-0.3,3.8c0.9,4.2,4.8,6.7,8.9,5.9c2.8-0.6,4.7-2.3,5.7-5c0.9-2.7,0.4-5.2-1.4-7.5
			c-1.8-2-4.2-2.8-6.9-2.5C202.7,204.7,201.6,205.1,200.5,206z"/>
		<path class="st11" d="M238.4,221.7c-3,0-5.5-0.7-8.1-1.8c-2-0.9-3.8-2.1-5.5-3.5c-1.4-1.3-3-2.5-4.3-4c-0.1-0.1-0.3-0.3-0.3-0.4
			c0,0,0-0.1,0-0.3l0.1-0.1c2.5-2.6,5.1-4.8,8.1-6.7c2-1.1,4-2,6.1-2.5c3.3-0.8,6.5-0.4,9.8,0.6c2.3,0.8,4.3,2,6.4,3.3
			c2.1,1.4,4,3.3,5.8,5.1c0.1,0.1,0.1,0.1,0.3,0.3c0.1,0.1,0,0.1,0,0.3l-0.1,0.1c-2.1,2.3-4.4,4.3-7,5.9c-2,1.3-4.1,2.3-6.2,3
			C241.6,221.5,240,221.7,238.4,221.7z M237,209.2c-1.3,3.1-0.3,7.4,3.5,9.4c3.5,2,7.8,0.8,9.9-2.6c2.1-3.3,1.4-7.7-1.8-10.1
			c-3.1-2.5-7.5-1.7-9.2,0.1c0.9,1,1,2,0.4,2.8C239.3,209.6,238.4,209.8,237,209.2z"/>
		<path class="st8" d="M200.5,206c1-0.8,2.1-1.4,3.4-1.4c2.7-0.3,5.1,0.3,6.9,2.5c2,2.1,2.4,4.7,1.4,7.5s-2.8,4.4-5.7,5
			c-4.1,0.8-8.1-1.8-8.9-5.9c-0.3-1.3-0.3-2.6,0.3-3.8c0.1-0.3,0.1-0.3,0.4-0.3c0.6,0.3,1.1,0.3,1.7,0.1c1.1-0.4,1.6-2,0.8-3
			C200.8,206.4,200.7,206.1,200.5,206z"/>
		<path class="st8" d="M237,209.2c1.3,0.6,2.3,0.4,2.8-0.4c0.6-0.8,0.4-1.8-0.4-2.8c1.8-1.8,6-2.6,9.2-0.1c3.1,2.4,3.8,6.8,1.8,10.1
			c-2.1,3.3-6.4,4.4-9.9,2.6C236.9,216.5,235.9,212.2,237,209.2z"/>
	</g>
</g>
</svg>
