-- Merging decision tree log ---
provider#android.support.v4.content.FileProvider
INJECTED from /Users/admin/Desktop/nabosupport_wp_hendrik/Mobile_app/platforms/android/app/src/main/AndroidManifest.xml:12:9-14:20
	android:grantUriPermissions
		ADDED from /Users/admin/Desktop/nabosupport_wp_hendrik/Mobile_app/platforms/android/app/src/main/AndroidManifest.xml:12:92-126
	android:authorities
		INJECTED from /Users/admin/Desktop/nabosupport_wp_hendrik/Mobile_app/platforms/android/app/src/main/AndroidManifest.xml
		ADDED from /Users/admin/Desktop/nabosupport_wp_hendrik/Mobile_app/platforms/android/app/src/main/AndroidManifest.xml:12:19-66
	android:exported
		ADDED from /Users/admin/Desktop/nabosupport_wp_hendrik/Mobile_app/platforms/android/app/src/main/AndroidManifest.xml:12:67-91
	android:name
		ADDED from /Users/admin/Desktop/nabosupport_wp_hendrik/Mobile_app/platforms/android/app/src/main/AndroidManifest.xml:12:127-181
provider#de.appplant.cordova.emailcomposer.Provider
INJECTED from /Users/admin/Desktop/nabosupport_wp_hendrik/Mobile_app/platforms/android/app/src/main/AndroidManifest.xml:16:9-18:20
	android:grantUriPermissions
		ADDED from /Users/admin/Desktop/nabosupport_wp_hendrik/Mobile_app/platforms/android/app/src/main/AndroidManifest.xml:16:92-126
	android:authorities
		INJECTED from /Users/admin/Desktop/nabosupport_wp_hendrik/Mobile_app/platforms/android/app/src/main/AndroidManifest.xml
		ADDED from /Users/admin/Desktop/nabosupport_wp_hendrik/Mobile_app/platforms/android/app/src/main/AndroidManifest.xml:16:19-66
	android:exported
		ADDED from /Users/admin/Desktop/nabosupport_wp_hendrik/Mobile_app/platforms/android/app/src/main/AndroidManifest.xml:16:67-91
	android:name
		ADDED from /Users/admin/Desktop/nabosupport_wp_hendrik/Mobile_app/platforms/android/app/src/main/AndroidManifest.xml:16:127-184
activity#com.adobe.phonegap.push.PushHandlerActivity
INJECTED from /Users/admin/Desktop/nabosupport_wp_hendrik/Mobile_app/platforms/android/app/src/main/AndroidManifest.xml:19:9-173
	android:exported
		ADDED from /Users/admin/Desktop/nabosupport_wp_hendrik/Mobile_app/platforms/android/app/src/main/AndroidManifest.xml:19:19-42
	android:permission
		INJECTED from /Users/admin/Desktop/nabosupport_wp_hendrik/Mobile_app/platforms/android/app/src/main/AndroidManifest.xml
		ADDED from /Users/admin/Desktop/nabosupport_wp_hendrik/Mobile_app/platforms/android/app/src/main/AndroidManifest.xml:19:102-170
	android:name
		ADDED from /Users/admin/Desktop/nabosupport_wp_hendrik/Mobile_app/platforms/android/app/src/main/AndroidManifest.xml:19:43-101
manifest
ADDED from /Users/admin/Desktop/nabosupport_wp_hendrik/Mobile_app/platforms/android/app/src/main/AndroidManifest.xml:2:1-44:12
INJECTED from /Users/admin/Desktop/nabosupport_wp_hendrik/Mobile_app/platforms/android/app/src/main/AndroidManifest.xml:2:1-44:12
INJECTED from /Users/admin/Desktop/nabosupport_wp_hendrik/Mobile_app/platforms/android/app/src/main/AndroidManifest.xml:2:1-44:12
INJECTED from /Users/admin/Desktop/nabosupport_wp_hendrik/Mobile_app/platforms/android/app/src/main/AndroidManifest.xml:2:1-44:12
MERGED from [com.android.support:support-v13:27.1.1] /Users/admin/.gradle/caches/transforms-1/files-1.1/support-v13-27.1.1.aar/208974350a6fbeabe097883e08de3176/AndroidManifest.xml:17:1-22:12
MERGED from [com.google.android.gms:play-services-location:11.6.2] /Users/admin/.gradle/caches/transforms-1/files-1.1/play-services-location-11.6.2.aar/9f71486836e6f991adf5ab51592de5a0/AndroidManifest.xml:2:1-5:12
MERGED from [com.google.firebase:firebase-messaging:11.6.2] /Users/admin/.gradle/caches/transforms-1/files-1.1/firebase-messaging-11.6.2.aar/b44d062ec20c151b258e7d317c58a44b/AndroidManifest.xml:16:1-30:12
MERGED from [com.google.android.gms:play-services-base:11.6.2] /Users/admin/.gradle/caches/transforms-1/files-1.1/play-services-base-11.6.2.aar/e7529e978cb50e35cbbbd2d4f7293883/AndroidManifest.xml:16:1-21:12
MERGED from [com.google.firebase:firebase-core:11.6.2] /Users/admin/.gradle/caches/transforms-1/files-1.1/firebase-core-11.6.2.aar/7019f76bce16bac4d5d5dc34fbe11167/AndroidManifest.xml:2:1-6:12
MERGED from [com.google.firebase:firebase-analytics:11.6.2] /Users/admin/.gradle/caches/transforms-1/files-1.1/firebase-analytics-11.6.2.aar/50a0eb0d07c3ef3f6fe9025c238dc2c8/AndroidManifest.xml:16:1-35:12
MERGED from [com.google.firebase:firebase-analytics-impl:11.6.2] /Users/admin/.gradle/caches/transforms-1/files-1.1/firebase-analytics-impl-11.6.2.aar/943439ab7f53c79fb7031432035f5998/AndroidManifest.xml:16:1-29:12
MERGED from [com.google.firebase:firebase-iid:11.6.2] /Users/admin/.gradle/caches/transforms-1/files-1.1/firebase-iid-11.6.2.aar/9169b2d0edf8cf6d340b8511cf841e5d/AndroidManifest.xml:16:1-47:12
MERGED from [com.google.firebase:firebase-common:11.6.2] /Users/admin/.gradle/caches/transforms-1/files-1.1/firebase-common-11.6.2.aar/55538ec36f151925b6b8500c6844da72/AndroidManifest.xml:2:1-8:12
MERGED from [com.google.android.gms:play-services-tasks:11.6.2] /Users/admin/.gradle/caches/transforms-1/files-1.1/play-services-tasks-11.6.2.aar/58593bcfae7cef9837037aec31e4d546/AndroidManifest.xml:2:1-5:12
MERGED from [com.google.android.gms:play-services-basement:11.6.2] /Users/admin/.gradle/caches/transforms-1/files-1.1/play-services-basement-11.6.2.aar/92b5761a22e733ae686a5bed0454fe9c/AndroidManifest.xml:16:1-23:12
MERGED from [com.android.support:support-v4:27.1.1] /Users/admin/.gradle/caches/transforms-1/files-1.1/support-v4-27.1.1.aar/e2bdced49a9dc8f3dd31b3bc22a512ab/AndroidManifest.xml:17:1-22:12
MERGED from [com.soundcloud.android:android-crop:1.0.0] /Users/admin/.gradle/caches/transforms-1/files-1.1/android-crop-1.0.0.aar/fcec817016260a835381b1a07c02e93b/AndroidManifest.xml:2:1-10:12
MERGED from [com.android.support:appcompat-v7:27.1.1] /Users/admin/.gradle/caches/transforms-1/files-1.1/appcompat-v7-27.1.1.aar/c3769f0fbff05d5fa6d50c76f9ebf8c3/AndroidManifest.xml:17:1-22:12
MERGED from [me.leolin:ShortcutBadger:1.1.17] /Users/admin/.gradle/caches/transforms-1/files-1.1/ShortcutBadger-1.1.17.aar/8bb9f81426f156f78c7d36936baa9be7/AndroidManifest.xml:2:1-52:12
MERGED from [:CordovaLib] /Users/admin/Desktop/nabosupport_wp_hendrik/Mobile_app/platforms/android/CordovaLib/build/intermediates/manifests/full/release/AndroidManifest.xml:20:1-27:12
MERGED from [com.android.support:multidex:1.0.2] /Users/admin/.gradle/caches/transforms-1/files-1.1/multidex-1.0.2.aar/dee9548535bf260a73a022e45fc1568f/AndroidManifest.xml:17:1-22:12
MERGED from [com.android.support:support-media-compat:27.1.1] /Users/admin/.gradle/caches/transforms-1/files-1.1/support-media-compat-27.1.1.aar/3f01797f9d9e996a37d8897a4da7d153/AndroidManifest.xml:17:1-22:12
MERGED from [com.android.support:support-fragment:27.1.1] /Users/admin/.gradle/caches/transforms-1/files-1.1/support-fragment-27.1.1.aar/4232d2a54a7f5e47d257dad32c61a085/AndroidManifest.xml:17:1-22:12
MERGED from [com.android.support:animated-vector-drawable:27.1.1] /Users/admin/.gradle/caches/transforms-1/files-1.1/animated-vector-drawable-27.1.1.aar/74d2fb17b16190e3c98eab5eb908efcf/AndroidManifest.xml:17:1-22:12
MERGED from [com.android.support:support-core-ui:27.1.1] /Users/admin/.gradle/caches/transforms-1/files-1.1/support-core-ui-27.1.1.aar/ec11e45c28b008f7a5d232eb3d3287ac/AndroidManifest.xml:17:1-22:12
MERGED from [com.android.support:support-core-utils:27.1.1] /Users/admin/.gradle/caches/transforms-1/files-1.1/support-core-utils-27.1.1.aar/b15c8ab8610b90bb0ea4338eef59ef7d/AndroidManifest.xml:17:1-22:12
MERGED from [com.android.support:support-vector-drawable:27.1.1] /Users/admin/.gradle/caches/transforms-1/files-1.1/support-vector-drawable-27.1.1.aar/e798ddc6e500d279d4424647f26eb1b9/AndroidManifest.xml:17:1-22:12
MERGED from [com.android.support:support-compat:27.1.1] /Users/admin/.gradle/caches/transforms-1/files-1.1/support-compat-27.1.1.aar/21bc26d0724abdb64ec3fa0ab07ede31/AndroidManifest.xml:17:1-22:12
MERGED from [com.google.android.gms:play-services-location-license:11.6.2] /Users/admin/.gradle/caches/transforms-1/files-1.1/play-services-location-license-11.6.2.aar/16dbe0c5f71c2cedd793c3cec578a6fb/AndroidManifest.xml:2:1-6:12
MERGED from [com.google.firebase:firebase-messaging-license:11.6.2] /Users/admin/.gradle/caches/transforms-1/files-1.1/firebase-messaging-license-11.6.2.aar/3dd8109f20e53b112a2075d022a02cce/AndroidManifest.xml:2:1-6:12
MERGED from [android.arch.lifecycle:runtime:1.1.0] /Users/admin/.gradle/caches/transforms-1/files-1.1/runtime-1.1.0.aar/72362cccf80e51cbc01b8b4d77c2c007/AndroidManifest.xml:17:1-22:12
MERGED from [android.arch.lifecycle:livedata-core:1.1.0] /Users/admin/.gradle/caches/transforms-1/files-1.1/livedata-core-1.1.0.aar/c3692cb2f7b84038a4408dc058348275/AndroidManifest.xml:17:1-22:12
MERGED from [android.arch.lifecycle:viewmodel:1.1.0] /Users/admin/.gradle/caches/transforms-1/files-1.1/viewmodel-1.1.0.aar/d645174bcef0fd873fc750b824a54ace/AndroidManifest.xml:17:1-22:12
MERGED from [com.google.android.gms:play-services-base-license:11.6.2] /Users/admin/.gradle/caches/transforms-1/files-1.1/play-services-base-license-11.6.2.aar/1dcc8fa9284897d4ae5aebc80c9b28c9/AndroidManifest.xml:2:1-6:12
MERGED from [com.google.android.gms:play-services-basement-license:11.6.2] /Users/admin/.gradle/caches/transforms-1/files-1.1/play-services-basement-license-11.6.2.aar/bf4747a571fcee6fa837d60d8af419c6/AndroidManifest.xml:2:1-6:12
MERGED from [com.google.android.gms:play-services-tasks-license:11.6.2] /Users/admin/.gradle/caches/transforms-1/files-1.1/play-services-tasks-license-11.6.2.aar/eb9dd9caaf64f43113113a8d1bf302e2/AndroidManifest.xml:2:1-6:12
MERGED from [com.google.firebase:firebase-iid-license:11.6.2] /Users/admin/.gradle/caches/transforms-1/files-1.1/firebase-iid-license-11.6.2.aar/25ce47d1be12f944a1aec18e814f7670/AndroidManifest.xml:2:1-6:12
MERGED from [com.google.firebase:firebase-common-license:11.6.2] /Users/admin/.gradle/caches/transforms-1/files-1.1/firebase-common-license-11.6.2.aar/c346046742d8672eacbd0ef15b32f471/AndroidManifest.xml:2:1-6:12
MERGED from [com.google.firebase:firebase-analytics-license:11.6.2] /Users/admin/.gradle/caches/transforms-1/files-1.1/firebase-analytics-license-11.6.2.aar/a622297e497f82519269a34dccddd2ef/AndroidManifest.xml:2:1-6:12
MERGED from [android.arch.core:runtime:1.1.0] /Users/admin/.gradle/caches/transforms-1/files-1.1/runtime-1.1.0.aar/8194da30ff06f0d0e23e97d45a816f55/AndroidManifest.xml:17:1-22:12
MERGED from [com.google.firebase:firebase-analytics-impl-license:11.6.2] /Users/admin/.gradle/caches/transforms-1/files-1.1/firebase-analytics-impl-license-11.6.2.aar/676bb02461d48e81b6eb0ca23f185933/AndroidManifest.xml:2:1-6:12
INJECTED from /Users/admin/Desktop/nabosupport_wp_hendrik/Mobile_app/platforms/android/app/src/main/AndroidManifest.xml:2:1-44:12
INJECTED from /Users/admin/Desktop/nabosupport_wp_hendrik/Mobile_app/platforms/android/app/src/main/AndroidManifest.xml:2:1-44:12
INJECTED from /Users/admin/Desktop/nabosupport_wp_hendrik/Mobile_app/platforms/android/app/src/main/AndroidManifest.xml:2:1-44:12
	package
		ADDED from /Users/admin/Desktop/nabosupport_wp_hendrik/Mobile_app/platforms/android/app/src/main/AndroidManifest.xml:2:102-141
		INJECTED from /Users/admin/Desktop/nabosupport_wp_hendrik/Mobile_app/platforms/android/app/src/main/AndroidManifest.xml
		INJECTED from /Users/admin/Desktop/nabosupport_wp_hendrik/Mobile_app/platforms/android/app/src/main/AndroidManifest.xml
	android:versionName
		ADDED from /Users/admin/Desktop/nabosupport_wp_hendrik/Mobile_app/platforms/android/app/src/main/AndroidManifest.xml:2:74-101
		INJECTED from /Users/admin/Desktop/nabosupport_wp_hendrik/Mobile_app/platforms/android/app/src/main/AndroidManifest.xml
		INJECTED from /Users/admin/Desktop/nabosupport_wp_hendrik/Mobile_app/platforms/android/app/src/main/AndroidManifest.xml
	android:hardwareAccelerated
		ADDED from /Users/admin/Desktop/nabosupport_wp_hendrik/Mobile_app/platforms/android/app/src/main/AndroidManifest.xml:2:11-45
	xmlns:android
		ADDED from /Users/admin/Desktop/nabosupport_wp_hendrik/Mobile_app/platforms/android/app/src/main/AndroidManifest.xml:2:142-200
	android:versionCode
		ADDED from /Users/admin/Desktop/nabosupport_wp_hendrik/Mobile_app/platforms/android/app/src/main/AndroidManifest.xml:2:46-73
		INJECTED from /Users/admin/Desktop/nabosupport_wp_hendrik/Mobile_app/platforms/android/app/src/main/AndroidManifest.xml
		INJECTED from /Users/admin/Desktop/nabosupport_wp_hendrik/Mobile_app/platforms/android/app/src/main/AndroidManifest.xml
supports-screens
ADDED from /Users/admin/Desktop/nabosupport_wp_hendrik/Mobile_app/platforms/android/app/src/main/AndroidManifest.xml:3:5-191
	android:largeScreens
		ADDED from /Users/admin/Desktop/nabosupport_wp_hendrik/Mobile_app/platforms/android/app/src/main/AndroidManifest.xml:3:49-76
	android:smallScreens
		ADDED from /Users/admin/Desktop/nabosupport_wp_hendrik/Mobile_app/platforms/android/app/src/main/AndroidManifest.xml:3:132-159
	android:normalScreens
		ADDED from /Users/admin/Desktop/nabosupport_wp_hendrik/Mobile_app/platforms/android/app/src/main/AndroidManifest.xml:3:77-105
	android:xlargeScreens
		ADDED from /Users/admin/Desktop/nabosupport_wp_hendrik/Mobile_app/platforms/android/app/src/main/AndroidManifest.xml:3:160-188
	android:resizeable
		ADDED from /Users/admin/Desktop/nabosupport_wp_hendrik/Mobile_app/platforms/android/app/src/main/AndroidManifest.xml:3:106-131
	android:anyDensity
		ADDED from /Users/admin/Desktop/nabosupport_wp_hendrik/Mobile_app/platforms/android/app/src/main/AndroidManifest.xml:3:23-48
uses-permission#android.permission.INTERNET
ADDED from /Users/admin/Desktop/nabosupport_wp_hendrik/Mobile_app/platforms/android/app/src/main/AndroidManifest.xml:4:5-67
MERGED from [com.google.firebase:firebase-analytics:11.6.2] /Users/admin/.gradle/caches/transforms-1/files-1.1/firebase-analytics-11.6.2.aar/50a0eb0d07c3ef3f6fe9025c238dc2c8/AndroidManifest.xml:20:5-66
MERGED from [com.google.firebase:firebase-analytics:11.6.2] /Users/admin/.gradle/caches/transforms-1/files-1.1/firebase-analytics-11.6.2.aar/50a0eb0d07c3ef3f6fe9025c238dc2c8/AndroidManifest.xml:20:5-66
MERGED from [com.google.firebase:firebase-analytics-impl:11.6.2] /Users/admin/.gradle/caches/transforms-1/files-1.1/firebase-analytics-impl-11.6.2.aar/943439ab7f53c79fb7031432035f5998/AndroidManifest.xml:20:5-66
MERGED from [com.google.firebase:firebase-analytics-impl:11.6.2] /Users/admin/.gradle/caches/transforms-1/files-1.1/firebase-analytics-impl-11.6.2.aar/943439ab7f53c79fb7031432035f5998/AndroidManifest.xml:20:5-66
MERGED from [com.google.firebase:firebase-iid:11.6.2] /Users/admin/.gradle/caches/transforms-1/files-1.1/firebase-iid-11.6.2.aar/9169b2d0edf8cf6d340b8511cf841e5d/AndroidManifest.xml:20:5-66
MERGED from [com.google.firebase:firebase-iid:11.6.2] /Users/admin/.gradle/caches/transforms-1/files-1.1/firebase-iid-11.6.2.aar/9169b2d0edf8cf6d340b8511cf841e5d/AndroidManifest.xml:20:5-66
	android:name
		ADDED from /Users/admin/Desktop/nabosupport_wp_hendrik/Mobile_app/platforms/android/app/src/main/AndroidManifest.xml:4:22-64
application
ADDED from /Users/admin/Desktop/nabosupport_wp_hendrik/Mobile_app/platforms/android/app/src/main/AndroidManifest.xml:5:5-32:19
MERGED from [com.google.android.gms:play-services-location:11.6.2] /Users/admin/.gradle/caches/transforms-1/files-1.1/play-services-location-11.6.2.aar/9f71486836e6f991adf5ab51592de5a0/AndroidManifest.xml:4:5-19
MERGED from [com.google.android.gms:play-services-location:11.6.2] /Users/admin/.gradle/caches/transforms-1/files-1.1/play-services-location-11.6.2.aar/9f71486836e6f991adf5ab51592de5a0/AndroidManifest.xml:4:5-19
MERGED from [com.google.firebase:firebase-messaging:11.6.2] /Users/admin/.gradle/caches/transforms-1/files-1.1/firebase-messaging-11.6.2.aar/b44d062ec20c151b258e7d317c58a44b/AndroidManifest.xml:19:5-29:19
MERGED from [com.google.firebase:firebase-messaging:11.6.2] /Users/admin/.gradle/caches/transforms-1/files-1.1/firebase-messaging-11.6.2.aar/b44d062ec20c151b258e7d317c58a44b/AndroidManifest.xml:19:5-29:19
MERGED from [com.google.android.gms:play-services-base:11.6.2] /Users/admin/.gradle/caches/transforms-1/files-1.1/play-services-base-11.6.2.aar/e7529e978cb50e35cbbbd2d4f7293883/AndroidManifest.xml:18:5-20:19
MERGED from [com.google.android.gms:play-services-base:11.6.2] /Users/admin/.gradle/caches/transforms-1/files-1.1/play-services-base-11.6.2.aar/e7529e978cb50e35cbbbd2d4f7293883/AndroidManifest.xml:18:5-20:19
MERGED from [com.google.firebase:firebase-core:11.6.2] /Users/admin/.gradle/caches/transforms-1/files-1.1/firebase-core-11.6.2.aar/7019f76bce16bac4d5d5dc34fbe11167/AndroidManifest.xml:5:5-20
MERGED from [com.google.firebase:firebase-core:11.6.2] /Users/admin/.gradle/caches/transforms-1/files-1.1/firebase-core-11.6.2.aar/7019f76bce16bac4d5d5dc34fbe11167/AndroidManifest.xml:5:5-20
MERGED from [com.google.firebase:firebase-analytics:11.6.2] /Users/admin/.gradle/caches/transforms-1/files-1.1/firebase-analytics-11.6.2.aar/50a0eb0d07c3ef3f6fe9025c238dc2c8/AndroidManifest.xml:24:5-34:19
MERGED from [com.google.firebase:firebase-analytics:11.6.2] /Users/admin/.gradle/caches/transforms-1/files-1.1/firebase-analytics-11.6.2.aar/50a0eb0d07c3ef3f6fe9025c238dc2c8/AndroidManifest.xml:24:5-34:19
MERGED from [com.google.firebase:firebase-analytics-impl:11.6.2] /Users/admin/.gradle/caches/transforms-1/files-1.1/firebase-analytics-impl-11.6.2.aar/943439ab7f53c79fb7031432035f5998/AndroidManifest.xml:24:5-28:19
MERGED from [com.google.firebase:firebase-analytics-impl:11.6.2] /Users/admin/.gradle/caches/transforms-1/files-1.1/firebase-analytics-impl-11.6.2.aar/943439ab7f53c79fb7031432035f5998/AndroidManifest.xml:24:5-28:19
MERGED from [com.google.firebase:firebase-iid:11.6.2] /Users/admin/.gradle/caches/transforms-1/files-1.1/firebase-iid-11.6.2.aar/9169b2d0edf8cf6d340b8511cf841e5d/AndroidManifest.xml:29:5-46:19
MERGED from [com.google.firebase:firebase-iid:11.6.2] /Users/admin/.gradle/caches/transforms-1/files-1.1/firebase-iid-11.6.2.aar/9169b2d0edf8cf6d340b8511cf841e5d/AndroidManifest.xml:29:5-46:19
MERGED from [com.google.firebase:firebase-common:11.6.2] /Users/admin/.gradle/caches/transforms-1/files-1.1/firebase-common-11.6.2.aar/55538ec36f151925b6b8500c6844da72/AndroidManifest.xml:4:5-7:19
MERGED from [com.google.firebase:firebase-common:11.6.2] /Users/admin/.gradle/caches/transforms-1/files-1.1/firebase-common-11.6.2.aar/55538ec36f151925b6b8500c6844da72/AndroidManifest.xml:4:5-7:19
MERGED from [com.google.android.gms:play-services-tasks:11.6.2] /Users/admin/.gradle/caches/transforms-1/files-1.1/play-services-tasks-11.6.2.aar/58593bcfae7cef9837037aec31e4d546/AndroidManifest.xml:4:5-19
MERGED from [com.google.android.gms:play-services-tasks:11.6.2] /Users/admin/.gradle/caches/transforms-1/files-1.1/play-services-tasks-11.6.2.aar/58593bcfae7cef9837037aec31e4d546/AndroidManifest.xml:4:5-19
MERGED from [com.google.android.gms:play-services-basement:11.6.2] /Users/admin/.gradle/caches/transforms-1/files-1.1/play-services-basement-11.6.2.aar/92b5761a22e733ae686a5bed0454fe9c/AndroidManifest.xml:19:5-21:19
MERGED from [com.google.android.gms:play-services-basement:11.6.2] /Users/admin/.gradle/caches/transforms-1/files-1.1/play-services-basement-11.6.2.aar/92b5761a22e733ae686a5bed0454fe9c/AndroidManifest.xml:19:5-21:19
MERGED from [com.google.android.gms:play-services-location-license:11.6.2] /Users/admin/.gradle/caches/transforms-1/files-1.1/play-services-location-license-11.6.2.aar/16dbe0c5f71c2cedd793c3cec578a6fb/AndroidManifest.xml:5:5-20
MERGED from [com.google.android.gms:play-services-location-license:11.6.2] /Users/admin/.gradle/caches/transforms-1/files-1.1/play-services-location-license-11.6.2.aar/16dbe0c5f71c2cedd793c3cec578a6fb/AndroidManifest.xml:5:5-20
MERGED from [com.google.firebase:firebase-messaging-license:11.6.2] /Users/admin/.gradle/caches/transforms-1/files-1.1/firebase-messaging-license-11.6.2.aar/3dd8109f20e53b112a2075d022a02cce/AndroidManifest.xml:5:5-20
MERGED from [com.google.firebase:firebase-messaging-license:11.6.2] /Users/admin/.gradle/caches/transforms-1/files-1.1/firebase-messaging-license-11.6.2.aar/3dd8109f20e53b112a2075d022a02cce/AndroidManifest.xml:5:5-20
MERGED from [com.google.android.gms:play-services-base-license:11.6.2] /Users/admin/.gradle/caches/transforms-1/files-1.1/play-services-base-license-11.6.2.aar/1dcc8fa9284897d4ae5aebc80c9b28c9/AndroidManifest.xml:5:5-20
MERGED from [com.google.android.gms:play-services-base-license:11.6.2] /Users/admin/.gradle/caches/transforms-1/files-1.1/play-services-base-license-11.6.2.aar/1dcc8fa9284897d4ae5aebc80c9b28c9/AndroidManifest.xml:5:5-20
MERGED from [com.google.android.gms:play-services-basement-license:11.6.2] /Users/admin/.gradle/caches/transforms-1/files-1.1/play-services-basement-license-11.6.2.aar/bf4747a571fcee6fa837d60d8af419c6/AndroidManifest.xml:5:5-20
MERGED from [com.google.android.gms:play-services-basement-license:11.6.2] /Users/admin/.gradle/caches/transforms-1/files-1.1/play-services-basement-license-11.6.2.aar/bf4747a571fcee6fa837d60d8af419c6/AndroidManifest.xml:5:5-20
MERGED from [com.google.android.gms:play-services-tasks-license:11.6.2] /Users/admin/.gradle/caches/transforms-1/files-1.1/play-services-tasks-license-11.6.2.aar/eb9dd9caaf64f43113113a8d1bf302e2/AndroidManifest.xml:5:5-20
MERGED from [com.google.android.gms:play-services-tasks-license:11.6.2] /Users/admin/.gradle/caches/transforms-1/files-1.1/play-services-tasks-license-11.6.2.aar/eb9dd9caaf64f43113113a8d1bf302e2/AndroidManifest.xml:5:5-20
MERGED from [com.google.firebase:firebase-iid-license:11.6.2] /Users/admin/.gradle/caches/transforms-1/files-1.1/firebase-iid-license-11.6.2.aar/25ce47d1be12f944a1aec18e814f7670/AndroidManifest.xml:5:5-20
MERGED from [com.google.firebase:firebase-iid-license:11.6.2] /Users/admin/.gradle/caches/transforms-1/files-1.1/firebase-iid-license-11.6.2.aar/25ce47d1be12f944a1aec18e814f7670/AndroidManifest.xml:5:5-20
MERGED from [com.google.firebase:firebase-common-license:11.6.2] /Users/admin/.gradle/caches/transforms-1/files-1.1/firebase-common-license-11.6.2.aar/c346046742d8672eacbd0ef15b32f471/AndroidManifest.xml:5:5-20
MERGED from [com.google.firebase:firebase-common-license:11.6.2] /Users/admin/.gradle/caches/transforms-1/files-1.1/firebase-common-license-11.6.2.aar/c346046742d8672eacbd0ef15b32f471/AndroidManifest.xml:5:5-20
MERGED from [com.google.firebase:firebase-analytics-license:11.6.2] /Users/admin/.gradle/caches/transforms-1/files-1.1/firebase-analytics-license-11.6.2.aar/a622297e497f82519269a34dccddd2ef/AndroidManifest.xml:5:5-20
MERGED from [com.google.firebase:firebase-analytics-license:11.6.2] /Users/admin/.gradle/caches/transforms-1/files-1.1/firebase-analytics-license-11.6.2.aar/a622297e497f82519269a34dccddd2ef/AndroidManifest.xml:5:5-20
MERGED from [com.google.firebase:firebase-analytics-impl-license:11.6.2] /Users/admin/.gradle/caches/transforms-1/files-1.1/firebase-analytics-impl-license-11.6.2.aar/676bb02461d48e81b6eb0ca23f185933/AndroidManifest.xml:5:5-20
MERGED from [com.google.firebase:firebase-analytics-impl-license:11.6.2] /Users/admin/.gradle/caches/transforms-1/files-1.1/firebase-analytics-impl-license-11.6.2.aar/676bb02461d48e81b6eb0ca23f185933/AndroidManifest.xml:5:5-20
	android:supportsRtl
		ADDED from /Users/admin/Desktop/nabosupport_wp_hendrik/Mobile_app/platforms/android/app/src/main/AndroidManifest.xml:5:114-140
	android:label
		ADDED from /Users/admin/Desktop/nabosupport_wp_hendrik/Mobile_app/platforms/android/app/src/main/AndroidManifest.xml:5:81-113
	android:hardwareAccelerated
		ADDED from /Users/admin/Desktop/nabosupport_wp_hendrik/Mobile_app/platforms/android/app/src/main/AndroidManifest.xml:5:18-52
	android:icon
		ADDED from /Users/admin/Desktop/nabosupport_wp_hendrik/Mobile_app/platforms/android/app/src/main/AndroidManifest.xml:5:53-80
activity#dk.nabosupportaps.nabosupport.MainActivity
ADDED from /Users/admin/Desktop/nabosupport_wp_hendrik/Mobile_app/platforms/android/app/src/main/AndroidManifest.xml:6:9-11:20
	android:label
		ADDED from /Users/admin/Desktop/nabosupport_wp_hendrik/Mobile_app/platforms/android/app/src/main/AndroidManifest.xml:6:97-134
	android:launchMode
		ADDED from /Users/admin/Desktop/nabosupport_wp_hendrik/Mobile_app/platforms/android/app/src/main/AndroidManifest.xml:6:135-165
	android:windowSoftInputMode
		ADDED from /Users/admin/Desktop/nabosupport_wp_hendrik/Mobile_app/platforms/android/app/src/main/AndroidManifest.xml:6:257-299
	android:configChanges
		ADDED from /Users/admin/Desktop/nabosupport_wp_hendrik/Mobile_app/platforms/android/app/src/main/AndroidManifest.xml:6:19-96
	android:theme
		ADDED from /Users/admin/Desktop/nabosupport_wp_hendrik/Mobile_app/platforms/android/app/src/main/AndroidManifest.xml:6:194-256
	android:name
		ADDED from /Users/admin/Desktop/nabosupport_wp_hendrik/Mobile_app/platforms/android/app/src/main/AndroidManifest.xml:6:166-193
intent-filter#android.intent.action.MAIN+android.intent.category.LAUNCHER
ADDED from /Users/admin/Desktop/nabosupport_wp_hendrik/Mobile_app/platforms/android/app/src/main/AndroidManifest.xml:7:13-10:29
	android:label
		ADDED from /Users/admin/Desktop/nabosupport_wp_hendrik/Mobile_app/platforms/android/app/src/main/AndroidManifest.xml:7:28-65
action#android.intent.action.MAIN
ADDED from /Users/admin/Desktop/nabosupport_wp_hendrik/Mobile_app/platforms/android/app/src/main/AndroidManifest.xml:8:17-69
	android:name
		ADDED from /Users/admin/Desktop/nabosupport_wp_hendrik/Mobile_app/platforms/android/app/src/main/AndroidManifest.xml:8:25-66
category#android.intent.category.LAUNCHER
ADDED from /Users/admin/Desktop/nabosupport_wp_hendrik/Mobile_app/platforms/android/app/src/main/AndroidManifest.xml:9:17-77
	android:name
		ADDED from /Users/admin/Desktop/nabosupport_wp_hendrik/Mobile_app/platforms/android/app/src/main/AndroidManifest.xml:9:27-74
activity#com.soundcloud.android.crop.CropImageActivity
ADDED from /Users/admin/Desktop/nabosupport_wp_hendrik/Mobile_app/platforms/android/app/src/main/AndroidManifest.xml:15:9-82
	android:name
		ADDED from /Users/admin/Desktop/nabosupport_wp_hendrik/Mobile_app/platforms/android/app/src/main/AndroidManifest.xml:15:19-79
receiver#com.adobe.phonegap.push.BackgroundActionButtonHandler
ADDED from /Users/admin/Desktop/nabosupport_wp_hendrik/Mobile_app/platforms/android/app/src/main/AndroidManifest.xml:20:9-90
	android:name
		ADDED from /Users/admin/Desktop/nabosupport_wp_hendrik/Mobile_app/platforms/android/app/src/main/AndroidManifest.xml:20:19-87
receiver#com.adobe.phonegap.push.PushDismissedHandler
ADDED from /Users/admin/Desktop/nabosupport_wp_hendrik/Mobile_app/platforms/android/app/src/main/AndroidManifest.xml:21:9-81
	android:name
		ADDED from /Users/admin/Desktop/nabosupport_wp_hendrik/Mobile_app/platforms/android/app/src/main/AndroidManifest.xml:21:19-78
service#com.adobe.phonegap.push.FCMService
ADDED from /Users/admin/Desktop/nabosupport_wp_hendrik/Mobile_app/platforms/android/app/src/main/AndroidManifest.xml:22:9-26:19
	android:name
		ADDED from /Users/admin/Desktop/nabosupport_wp_hendrik/Mobile_app/platforms/android/app/src/main/AndroidManifest.xml:22:18-67
intent-filter#com.google.firebase.MESSAGING_EVENT
ADDED from /Users/admin/Desktop/nabosupport_wp_hendrik/Mobile_app/platforms/android/app/src/main/AndroidManifest.xml:23:13-25:29
action#com.google.firebase.MESSAGING_EVENT
ADDED from /Users/admin/Desktop/nabosupport_wp_hendrik/Mobile_app/platforms/android/app/src/main/AndroidManifest.xml:24:17-78
	android:name
		ADDED from /Users/admin/Desktop/nabosupport_wp_hendrik/Mobile_app/platforms/android/app/src/main/AndroidManifest.xml:24:25-75
service#com.adobe.phonegap.push.PushInstanceIDListenerService
ADDED from /Users/admin/Desktop/nabosupport_wp_hendrik/Mobile_app/platforms/android/app/src/main/AndroidManifest.xml:27:9-31:19
	android:name
		ADDED from /Users/admin/Desktop/nabosupport_wp_hendrik/Mobile_app/platforms/android/app/src/main/AndroidManifest.xml:27:18-86
intent-filter#com.google.firebase.INSTANCE_ID_EVENT
ADDED from /Users/admin/Desktop/nabosupport_wp_hendrik/Mobile_app/platforms/android/app/src/main/AndroidManifest.xml:28:13-30:29
action#com.google.firebase.INSTANCE_ID_EVENT
ADDED from /Users/admin/Desktop/nabosupport_wp_hendrik/Mobile_app/platforms/android/app/src/main/AndroidManifest.xml:29:17-80
	android:name
		ADDED from /Users/admin/Desktop/nabosupport_wp_hendrik/Mobile_app/platforms/android/app/src/main/AndroidManifest.xml:29:25-77
uses-sdk
ADDED from /Users/admin/Desktop/nabosupport_wp_hendrik/Mobile_app/platforms/android/app/src/main/AndroidManifest.xml:33:5-74
MERGED from [com.android.support:support-v13:27.1.1] /Users/admin/.gradle/caches/transforms-1/files-1.1/support-v13-27.1.1.aar/208974350a6fbeabe097883e08de3176/AndroidManifest.xml:20:5-44
MERGED from [com.android.support:support-v13:27.1.1] /Users/admin/.gradle/caches/transforms-1/files-1.1/support-v13-27.1.1.aar/208974350a6fbeabe097883e08de3176/AndroidManifest.xml:20:5-44
MERGED from [com.google.android.gms:play-services-location:11.6.2] /Users/admin/.gradle/caches/transforms-1/files-1.1/play-services-location-11.6.2.aar/9f71486836e6f991adf5ab51592de5a0/AndroidManifest.xml:3:5-43
MERGED from [com.google.android.gms:play-services-location:11.6.2] /Users/admin/.gradle/caches/transforms-1/files-1.1/play-services-location-11.6.2.aar/9f71486836e6f991adf5ab51592de5a0/AndroidManifest.xml:3:5-43
MERGED from [com.google.firebase:firebase-messaging:11.6.2] /Users/admin/.gradle/caches/transforms-1/files-1.1/firebase-messaging-11.6.2.aar/b44d062ec20c151b258e7d317c58a44b/AndroidManifest.xml:17:5-43
MERGED from [com.google.firebase:firebase-messaging:11.6.2] /Users/admin/.gradle/caches/transforms-1/files-1.1/firebase-messaging-11.6.2.aar/b44d062ec20c151b258e7d317c58a44b/AndroidManifest.xml:17:5-43
MERGED from [com.google.android.gms:play-services-base:11.6.2] /Users/admin/.gradle/caches/transforms-1/files-1.1/play-services-base-11.6.2.aar/e7529e978cb50e35cbbbd2d4f7293883/AndroidManifest.xml:17:5-43
MERGED from [com.google.android.gms:play-services-base:11.6.2] /Users/admin/.gradle/caches/transforms-1/files-1.1/play-services-base-11.6.2.aar/e7529e978cb50e35cbbbd2d4f7293883/AndroidManifest.xml:17:5-43
MERGED from [com.google.firebase:firebase-core:11.6.2] /Users/admin/.gradle/caches/transforms-1/files-1.1/firebase-core-11.6.2.aar/7019f76bce16bac4d5d5dc34fbe11167/AndroidManifest.xml:4:5-43
MERGED from [com.google.firebase:firebase-core:11.6.2] /Users/admin/.gradle/caches/transforms-1/files-1.1/firebase-core-11.6.2.aar/7019f76bce16bac4d5d5dc34fbe11167/AndroidManifest.xml:4:5-43
MERGED from [com.google.firebase:firebase-analytics:11.6.2] /Users/admin/.gradle/caches/transforms-1/files-1.1/firebase-analytics-11.6.2.aar/50a0eb0d07c3ef3f6fe9025c238dc2c8/AndroidManifest.xml:17:5-43
MERGED from [com.google.firebase:firebase-analytics:11.6.2] /Users/admin/.gradle/caches/transforms-1/files-1.1/firebase-analytics-11.6.2.aar/50a0eb0d07c3ef3f6fe9025c238dc2c8/AndroidManifest.xml:17:5-43
MERGED from [com.google.firebase:firebase-analytics-impl:11.6.2] /Users/admin/.gradle/caches/transforms-1/files-1.1/firebase-analytics-impl-11.6.2.aar/943439ab7f53c79fb7031432035f5998/AndroidManifest.xml:17:5-43
MERGED from [com.google.firebase:firebase-analytics-impl:11.6.2] /Users/admin/.gradle/caches/transforms-1/files-1.1/firebase-analytics-impl-11.6.2.aar/943439ab7f53c79fb7031432035f5998/AndroidManifest.xml:17:5-43
MERGED from [com.google.firebase:firebase-iid:11.6.2] /Users/admin/.gradle/caches/transforms-1/files-1.1/firebase-iid-11.6.2.aar/9169b2d0edf8cf6d340b8511cf841e5d/AndroidManifest.xml:17:5-43
MERGED from [com.google.firebase:firebase-iid:11.6.2] /Users/admin/.gradle/caches/transforms-1/files-1.1/firebase-iid-11.6.2.aar/9169b2d0edf8cf6d340b8511cf841e5d/AndroidManifest.xml:17:5-43
MERGED from [com.google.firebase:firebase-common:11.6.2] /Users/admin/.gradle/caches/transforms-1/files-1.1/firebase-common-11.6.2.aar/55538ec36f151925b6b8500c6844da72/AndroidManifest.xml:3:5-43
MERGED from [com.google.firebase:firebase-common:11.6.2] /Users/admin/.gradle/caches/transforms-1/files-1.1/firebase-common-11.6.2.aar/55538ec36f151925b6b8500c6844da72/AndroidManifest.xml:3:5-43
MERGED from [com.google.android.gms:play-services-tasks:11.6.2] /Users/admin/.gradle/caches/transforms-1/files-1.1/play-services-tasks-11.6.2.aar/58593bcfae7cef9837037aec31e4d546/AndroidManifest.xml:3:5-43
MERGED from [com.google.android.gms:play-services-tasks:11.6.2] /Users/admin/.gradle/caches/transforms-1/files-1.1/play-services-tasks-11.6.2.aar/58593bcfae7cef9837037aec31e4d546/AndroidManifest.xml:3:5-43
MERGED from [com.google.android.gms:play-services-basement:11.6.2] /Users/admin/.gradle/caches/transforms-1/files-1.1/play-services-basement-11.6.2.aar/92b5761a22e733ae686a5bed0454fe9c/AndroidManifest.xml:17:5-43
MERGED from [com.google.android.gms:play-services-basement:11.6.2] /Users/admin/.gradle/caches/transforms-1/files-1.1/play-services-basement-11.6.2.aar/92b5761a22e733ae686a5bed0454fe9c/AndroidManifest.xml:17:5-43
MERGED from [com.android.support:support-v4:27.1.1] /Users/admin/.gradle/caches/transforms-1/files-1.1/support-v4-27.1.1.aar/e2bdced49a9dc8f3dd31b3bc22a512ab/AndroidManifest.xml:20:5-44
MERGED from [com.android.support:support-v4:27.1.1] /Users/admin/.gradle/caches/transforms-1/files-1.1/support-v4-27.1.1.aar/e2bdced49a9dc8f3dd31b3bc22a512ab/AndroidManifest.xml:20:5-44
MERGED from [com.soundcloud.android:android-crop:1.0.0] /Users/admin/.gradle/caches/transforms-1/files-1.1/android-crop-1.0.0.aar/fcec817016260a835381b1a07c02e93b/AndroidManifest.xml:6:5-8:41
MERGED from [com.soundcloud.android:android-crop:1.0.0] /Users/admin/.gradle/caches/transforms-1/files-1.1/android-crop-1.0.0.aar/fcec817016260a835381b1a07c02e93b/AndroidManifest.xml:6:5-8:41
MERGED from [com.android.support:appcompat-v7:27.1.1] /Users/admin/.gradle/caches/transforms-1/files-1.1/appcompat-v7-27.1.1.aar/c3769f0fbff05d5fa6d50c76f9ebf8c3/AndroidManifest.xml:20:5-44
MERGED from [com.android.support:appcompat-v7:27.1.1] /Users/admin/.gradle/caches/transforms-1/files-1.1/appcompat-v7-27.1.1.aar/c3769f0fbff05d5fa6d50c76f9ebf8c3/AndroidManifest.xml:20:5-44
MERGED from [me.leolin:ShortcutBadger:1.1.17] /Users/admin/.gradle/caches/transforms-1/files-1.1/ShortcutBadger-1.1.17.aar/8bb9f81426f156f78c7d36936baa9be7/AndroidManifest.xml:7:5-9:41
MERGED from [me.leolin:ShortcutBadger:1.1.17] /Users/admin/.gradle/caches/transforms-1/files-1.1/ShortcutBadger-1.1.17.aar/8bb9f81426f156f78c7d36936baa9be7/AndroidManifest.xml:7:5-9:41
MERGED from [:CordovaLib] /Users/admin/Desktop/nabosupport_wp_hendrik/Mobile_app/platforms/android/CordovaLib/build/intermediates/manifests/full/release/AndroidManifest.xml:25:5-44
MERGED from [:CordovaLib] /Users/admin/Desktop/nabosupport_wp_hendrik/Mobile_app/platforms/android/CordovaLib/build/intermediates/manifests/full/release/AndroidManifest.xml:25:5-44
MERGED from [com.android.support:multidex:1.0.2] /Users/admin/.gradle/caches/transforms-1/files-1.1/multidex-1.0.2.aar/dee9548535bf260a73a022e45fc1568f/AndroidManifest.xml:20:5-43
MERGED from [com.android.support:multidex:1.0.2] /Users/admin/.gradle/caches/transforms-1/files-1.1/multidex-1.0.2.aar/dee9548535bf260a73a022e45fc1568f/AndroidManifest.xml:20:5-43
MERGED from [com.android.support:support-media-compat:27.1.1] /Users/admin/.gradle/caches/transforms-1/files-1.1/support-media-compat-27.1.1.aar/3f01797f9d9e996a37d8897a4da7d153/AndroidManifest.xml:20:5-44
MERGED from [com.android.support:support-media-compat:27.1.1] /Users/admin/.gradle/caches/transforms-1/files-1.1/support-media-compat-27.1.1.aar/3f01797f9d9e996a37d8897a4da7d153/AndroidManifest.xml:20:5-44
MERGED from [com.android.support:support-fragment:27.1.1] /Users/admin/.gradle/caches/transforms-1/files-1.1/support-fragment-27.1.1.aar/4232d2a54a7f5e47d257dad32c61a085/AndroidManifest.xml:20:5-44
MERGED from [com.android.support:support-fragment:27.1.1] /Users/admin/.gradle/caches/transforms-1/files-1.1/support-fragment-27.1.1.aar/4232d2a54a7f5e47d257dad32c61a085/AndroidManifest.xml:20:5-44
MERGED from [com.android.support:animated-vector-drawable:27.1.1] /Users/admin/.gradle/caches/transforms-1/files-1.1/animated-vector-drawable-27.1.1.aar/74d2fb17b16190e3c98eab5eb908efcf/AndroidManifest.xml:20:5-44
MERGED from [com.android.support:animated-vector-drawable:27.1.1] /Users/admin/.gradle/caches/transforms-1/files-1.1/animated-vector-drawable-27.1.1.aar/74d2fb17b16190e3c98eab5eb908efcf/AndroidManifest.xml:20:5-44
MERGED from [com.android.support:support-core-ui:27.1.1] /Users/admin/.gradle/caches/transforms-1/files-1.1/support-core-ui-27.1.1.aar/ec11e45c28b008f7a5d232eb3d3287ac/AndroidManifest.xml:20:5-44
MERGED from [com.android.support:support-core-ui:27.1.1] /Users/admin/.gradle/caches/transforms-1/files-1.1/support-core-ui-27.1.1.aar/ec11e45c28b008f7a5d232eb3d3287ac/AndroidManifest.xml:20:5-44
MERGED from [com.android.support:support-core-utils:27.1.1] /Users/admin/.gradle/caches/transforms-1/files-1.1/support-core-utils-27.1.1.aar/b15c8ab8610b90bb0ea4338eef59ef7d/AndroidManifest.xml:20:5-44
MERGED from [com.android.support:support-core-utils:27.1.1] /Users/admin/.gradle/caches/transforms-1/files-1.1/support-core-utils-27.1.1.aar/b15c8ab8610b90bb0ea4338eef59ef7d/AndroidManifest.xml:20:5-44
MERGED from [com.android.support:support-vector-drawable:27.1.1] /Users/admin/.gradle/caches/transforms-1/files-1.1/support-vector-drawable-27.1.1.aar/e798ddc6e500d279d4424647f26eb1b9/AndroidManifest.xml:20:5-44
MERGED from [com.android.support:support-vector-drawable:27.1.1] /Users/admin/.gradle/caches/transforms-1/files-1.1/support-vector-drawable-27.1.1.aar/e798ddc6e500d279d4424647f26eb1b9/AndroidManifest.xml:20:5-44
MERGED from [com.android.support:support-compat:27.1.1] /Users/admin/.gradle/caches/transforms-1/files-1.1/support-compat-27.1.1.aar/21bc26d0724abdb64ec3fa0ab07ede31/AndroidManifest.xml:20:5-44
MERGED from [com.android.support:support-compat:27.1.1] /Users/admin/.gradle/caches/transforms-1/files-1.1/support-compat-27.1.1.aar/21bc26d0724abdb64ec3fa0ab07ede31/AndroidManifest.xml:20:5-44
MERGED from [com.google.android.gms:play-services-location-license:11.6.2] /Users/admin/.gradle/caches/transforms-1/files-1.1/play-services-location-license-11.6.2.aar/16dbe0c5f71c2cedd793c3cec578a6fb/AndroidManifest.xml:4:5-43
MERGED from [com.google.android.gms:play-services-location-license:11.6.2] /Users/admin/.gradle/caches/transforms-1/files-1.1/play-services-location-license-11.6.2.aar/16dbe0c5f71c2cedd793c3cec578a6fb/AndroidManifest.xml:4:5-43
MERGED from [com.google.firebase:firebase-messaging-license:11.6.2] /Users/admin/.gradle/caches/transforms-1/files-1.1/firebase-messaging-license-11.6.2.aar/3dd8109f20e53b112a2075d022a02cce/AndroidManifest.xml:4:5-43
MERGED from [com.google.firebase:firebase-messaging-license:11.6.2] /Users/admin/.gradle/caches/transforms-1/files-1.1/firebase-messaging-license-11.6.2.aar/3dd8109f20e53b112a2075d022a02cce/AndroidManifest.xml:4:5-43
MERGED from [android.arch.lifecycle:runtime:1.1.0] /Users/admin/.gradle/caches/transforms-1/files-1.1/runtime-1.1.0.aar/72362cccf80e51cbc01b8b4d77c2c007/AndroidManifest.xml:20:5-44
MERGED from [android.arch.lifecycle:runtime:1.1.0] /Users/admin/.gradle/caches/transforms-1/files-1.1/runtime-1.1.0.aar/72362cccf80e51cbc01b8b4d77c2c007/AndroidManifest.xml:20:5-44
MERGED from [android.arch.lifecycle:livedata-core:1.1.0] /Users/admin/.gradle/caches/transforms-1/files-1.1/livedata-core-1.1.0.aar/c3692cb2f7b84038a4408dc058348275/AndroidManifest.xml:20:5-44
MERGED from [android.arch.lifecycle:livedata-core:1.1.0] /Users/admin/.gradle/caches/transforms-1/files-1.1/livedata-core-1.1.0.aar/c3692cb2f7b84038a4408dc058348275/AndroidManifest.xml:20:5-44
MERGED from [android.arch.lifecycle:viewmodel:1.1.0] /Users/admin/.gradle/caches/transforms-1/files-1.1/viewmodel-1.1.0.aar/d645174bcef0fd873fc750b824a54ace/AndroidManifest.xml:20:5-44
MERGED from [android.arch.lifecycle:viewmodel:1.1.0] /Users/admin/.gradle/caches/transforms-1/files-1.1/viewmodel-1.1.0.aar/d645174bcef0fd873fc750b824a54ace/AndroidManifest.xml:20:5-44
MERGED from [com.google.android.gms:play-services-base-license:11.6.2] /Users/admin/.gradle/caches/transforms-1/files-1.1/play-services-base-license-11.6.2.aar/1dcc8fa9284897d4ae5aebc80c9b28c9/AndroidManifest.xml:4:5-43
MERGED from [com.google.android.gms:play-services-base-license:11.6.2] /Users/admin/.gradle/caches/transforms-1/files-1.1/play-services-base-license-11.6.2.aar/1dcc8fa9284897d4ae5aebc80c9b28c9/AndroidManifest.xml:4:5-43
MERGED from [com.google.android.gms:play-services-basement-license:11.6.2] /Users/admin/.gradle/caches/transforms-1/files-1.1/play-services-basement-license-11.6.2.aar/bf4747a571fcee6fa837d60d8af419c6/AndroidManifest.xml:4:5-43
MERGED from [com.google.android.gms:play-services-basement-license:11.6.2] /Users/admin/.gradle/caches/transforms-1/files-1.1/play-services-basement-license-11.6.2.aar/bf4747a571fcee6fa837d60d8af419c6/AndroidManifest.xml:4:5-43
MERGED from [com.google.android.gms:play-services-tasks-license:11.6.2] /Users/admin/.gradle/caches/transforms-1/files-1.1/play-services-tasks-license-11.6.2.aar/eb9dd9caaf64f43113113a8d1bf302e2/AndroidManifest.xml:4:5-43
MERGED from [com.google.android.gms:play-services-tasks-license:11.6.2] /Users/admin/.gradle/caches/transforms-1/files-1.1/play-services-tasks-license-11.6.2.aar/eb9dd9caaf64f43113113a8d1bf302e2/AndroidManifest.xml:4:5-43
MERGED from [com.google.firebase:firebase-iid-license:11.6.2] /Users/admin/.gradle/caches/transforms-1/files-1.1/firebase-iid-license-11.6.2.aar/25ce47d1be12f944a1aec18e814f7670/AndroidManifest.xml:4:5-43
MERGED from [com.google.firebase:firebase-iid-license:11.6.2] /Users/admin/.gradle/caches/transforms-1/files-1.1/firebase-iid-license-11.6.2.aar/25ce47d1be12f944a1aec18e814f7670/AndroidManifest.xml:4:5-43
MERGED from [com.google.firebase:firebase-common-license:11.6.2] /Users/admin/.gradle/caches/transforms-1/files-1.1/firebase-common-license-11.6.2.aar/c346046742d8672eacbd0ef15b32f471/AndroidManifest.xml:4:5-43
MERGED from [com.google.firebase:firebase-common-license:11.6.2] /Users/admin/.gradle/caches/transforms-1/files-1.1/firebase-common-license-11.6.2.aar/c346046742d8672eacbd0ef15b32f471/AndroidManifest.xml:4:5-43
MERGED from [com.google.firebase:firebase-analytics-license:11.6.2] /Users/admin/.gradle/caches/transforms-1/files-1.1/firebase-analytics-license-11.6.2.aar/a622297e497f82519269a34dccddd2ef/AndroidManifest.xml:4:5-43
MERGED from [com.google.firebase:firebase-analytics-license:11.6.2] /Users/admin/.gradle/caches/transforms-1/files-1.1/firebase-analytics-license-11.6.2.aar/a622297e497f82519269a34dccddd2ef/AndroidManifest.xml:4:5-43
MERGED from [android.arch.core:runtime:1.1.0] /Users/admin/.gradle/caches/transforms-1/files-1.1/runtime-1.1.0.aar/8194da30ff06f0d0e23e97d45a816f55/AndroidManifest.xml:20:5-44
MERGED from [android.arch.core:runtime:1.1.0] /Users/admin/.gradle/caches/transforms-1/files-1.1/runtime-1.1.0.aar/8194da30ff06f0d0e23e97d45a816f55/AndroidManifest.xml:20:5-44
MERGED from [com.google.firebase:firebase-analytics-impl-license:11.6.2] /Users/admin/.gradle/caches/transforms-1/files-1.1/firebase-analytics-impl-license-11.6.2.aar/676bb02461d48e81b6eb0ca23f185933/AndroidManifest.xml:4:5-43
MERGED from [com.google.firebase:firebase-analytics-impl-license:11.6.2] /Users/admin/.gradle/caches/transforms-1/files-1.1/firebase-analytics-impl-license-11.6.2.aar/676bb02461d48e81b6eb0ca23f185933/AndroidManifest.xml:4:5-43
	android:targetSdkVersion
		ADDED from /Users/admin/Desktop/nabosupport_wp_hendrik/Mobile_app/platforms/android/app/src/main/AndroidManifest.xml:33:42-71
	android:minSdkVersion
		ADDED from /Users/admin/Desktop/nabosupport_wp_hendrik/Mobile_app/platforms/android/app/src/main/AndroidManifest.xml:33:15-41
uses-permission#android.permission.WRITE_EXTERNAL_STORAGE
ADDED from /Users/admin/Desktop/nabosupport_wp_hendrik/Mobile_app/platforms/android/app/src/main/AndroidManifest.xml:34:5-81
	android:name
		ADDED from /Users/admin/Desktop/nabosupport_wp_hendrik/Mobile_app/platforms/android/app/src/main/AndroidManifest.xml:34:22-78
uses-permission#android.permission.GET_ACCOUNTS
ADDED from /Users/admin/Desktop/nabosupport_wp_hendrik/Mobile_app/platforms/android/app/src/main/AndroidManifest.xml:35:5-71
	android:name
		ADDED from /Users/admin/Desktop/nabosupport_wp_hendrik/Mobile_app/platforms/android/app/src/main/AndroidManifest.xml:35:22-68
uses-permission#android.permission.READ_EXTERNAL_STORAGE
ADDED from /Users/admin/Desktop/nabosupport_wp_hendrik/Mobile_app/platforms/android/app/src/main/AndroidManifest.xml:36:5-80
	android:name
		ADDED from /Users/admin/Desktop/nabosupport_wp_hendrik/Mobile_app/platforms/android/app/src/main/AndroidManifest.xml:36:22-77
uses-feature#android.hardware.location.gps
ADDED from /Users/admin/Desktop/nabosupport_wp_hendrik/Mobile_app/platforms/android/app/src/main/AndroidManifest.xml:37:5-66
	android:name
		ADDED from /Users/admin/Desktop/nabosupport_wp_hendrik/Mobile_app/platforms/android/app/src/main/AndroidManifest.xml:37:19-63
uses-permission#android.permission.ACCESS_NETWORK_STATE
ADDED from /Users/admin/Desktop/nabosupport_wp_hendrik/Mobile_app/platforms/android/app/src/main/AndroidManifest.xml:38:5-79
MERGED from [com.google.firebase:firebase-analytics:11.6.2] /Users/admin/.gradle/caches/transforms-1/files-1.1/firebase-analytics-11.6.2.aar/50a0eb0d07c3ef3f6fe9025c238dc2c8/AndroidManifest.xml:21:5-78
MERGED from [com.google.firebase:firebase-analytics:11.6.2] /Users/admin/.gradle/caches/transforms-1/files-1.1/firebase-analytics-11.6.2.aar/50a0eb0d07c3ef3f6fe9025c238dc2c8/AndroidManifest.xml:21:5-78
MERGED from [com.google.firebase:firebase-analytics-impl:11.6.2] /Users/admin/.gradle/caches/transforms-1/files-1.1/firebase-analytics-impl-11.6.2.aar/943439ab7f53c79fb7031432035f5998/AndroidManifest.xml:21:5-78
MERGED from [com.google.firebase:firebase-analytics-impl:11.6.2] /Users/admin/.gradle/caches/transforms-1/files-1.1/firebase-analytics-impl-11.6.2.aar/943439ab7f53c79fb7031432035f5998/AndroidManifest.xml:21:5-78
MERGED from [com.google.firebase:firebase-iid:11.6.2] /Users/admin/.gradle/caches/transforms-1/files-1.1/firebase-iid-11.6.2.aar/9169b2d0edf8cf6d340b8511cf841e5d/AndroidManifest.xml:19:5-78
MERGED from [com.google.firebase:firebase-iid:11.6.2] /Users/admin/.gradle/caches/transforms-1/files-1.1/firebase-iid-11.6.2.aar/9169b2d0edf8cf6d340b8511cf841e5d/AndroidManifest.xml:19:5-78
	android:name
		ADDED from /Users/admin/Desktop/nabosupport_wp_hendrik/Mobile_app/platforms/android/app/src/main/AndroidManifest.xml:38:22-76
uses-permission#android.permission.WAKE_LOCK
ADDED from /Users/admin/Desktop/nabosupport_wp_hendrik/Mobile_app/platforms/android/app/src/main/AndroidManifest.xml:39:5-68
MERGED from [com.google.firebase:firebase-analytics:11.6.2] /Users/admin/.gradle/caches/transforms-1/files-1.1/firebase-analytics-11.6.2.aar/50a0eb0d07c3ef3f6fe9025c238dc2c8/AndroidManifest.xml:22:5-67
MERGED from [com.google.firebase:firebase-analytics:11.6.2] /Users/admin/.gradle/caches/transforms-1/files-1.1/firebase-analytics-11.6.2.aar/50a0eb0d07c3ef3f6fe9025c238dc2c8/AndroidManifest.xml:22:5-67
MERGED from [com.google.firebase:firebase-analytics-impl:11.6.2] /Users/admin/.gradle/caches/transforms-1/files-1.1/firebase-analytics-impl-11.6.2.aar/943439ab7f53c79fb7031432035f5998/AndroidManifest.xml:22:5-67
MERGED from [com.google.firebase:firebase-analytics-impl:11.6.2] /Users/admin/.gradle/caches/transforms-1/files-1.1/firebase-analytics-impl-11.6.2.aar/943439ab7f53c79fb7031432035f5998/AndroidManifest.xml:22:5-67
MERGED from [com.google.firebase:firebase-iid:11.6.2] /Users/admin/.gradle/caches/transforms-1/files-1.1/firebase-iid-11.6.2.aar/9169b2d0edf8cf6d340b8511cf841e5d/AndroidManifest.xml:21:5-67
MERGED from [com.google.firebase:firebase-iid:11.6.2] /Users/admin/.gradle/caches/transforms-1/files-1.1/firebase-iid-11.6.2.aar/9169b2d0edf8cf6d340b8511cf841e5d/AndroidManifest.xml:21:5-67
	android:name
		ADDED from /Users/admin/Desktop/nabosupport_wp_hendrik/Mobile_app/platforms/android/app/src/main/AndroidManifest.xml:39:22-65
uses-permission#android.permission.VIBRATE
ADDED from /Users/admin/Desktop/nabosupport_wp_hendrik/Mobile_app/platforms/android/app/src/main/AndroidManifest.xml:40:5-66
	android:name
		ADDED from /Users/admin/Desktop/nabosupport_wp_hendrik/Mobile_app/platforms/android/app/src/main/AndroidManifest.xml:40:22-63
uses-permission#android.permission.BLUETOOTH
ADDED from /Users/admin/Desktop/nabosupport_wp_hendrik/Mobile_app/platforms/android/app/src/main/AndroidManifest.xml:41:5-68
	android:name
		ADDED from /Users/admin/Desktop/nabosupport_wp_hendrik/Mobile_app/platforms/android/app/src/main/AndroidManifest.xml:41:22-65
uses-permission#android.permission.ACCESS_COARSE_LOCATION
ADDED from /Users/admin/Desktop/nabosupport_wp_hendrik/Mobile_app/platforms/android/app/src/main/AndroidManifest.xml:42:5-81
	android:name
		ADDED from /Users/admin/Desktop/nabosupport_wp_hendrik/Mobile_app/platforms/android/app/src/main/AndroidManifest.xml:42:22-78
uses-permission#android.permission.ACCESS_FINE_LOCATION
ADDED from /Users/admin/Desktop/nabosupport_wp_hendrik/Mobile_app/platforms/android/app/src/main/AndroidManifest.xml:43:5-79
	android:name
		ADDED from /Users/admin/Desktop/nabosupport_wp_hendrik/Mobile_app/platforms/android/app/src/main/AndroidManifest.xml:43:22-76
meta-data#android.support.FILE_PROVIDER_PATHS
ADDED from /Users/admin/Desktop/nabosupport_wp_hendrik/Mobile_app/platforms/android/app/src/main/AndroidManifest.xml:13:13-116
	android:resource
		ADDED from /Users/admin/Desktop/nabosupport_wp_hendrik/Mobile_app/platforms/android/app/src/main/AndroidManifest.xml:13:75-113
	android:name
		ADDED from /Users/admin/Desktop/nabosupport_wp_hendrik/Mobile_app/platforms/android/app/src/main/AndroidManifest.xml:13:24-74
service#com.google.firebase.messaging.FirebaseMessagingService
ADDED from [com.google.firebase:firebase-messaging:11.6.2] /Users/admin/.gradle/caches/transforms-1/files-1.1/firebase-messaging-11.6.2.aar/b44d062ec20c151b258e7d317c58a44b/AndroidManifest.xml:23:9-27:19
	android:exported
		ADDED from [com.google.firebase:firebase-messaging:11.6.2] /Users/admin/.gradle/caches/transforms-1/files-1.1/firebase-messaging-11.6.2.aar/b44d062ec20c151b258e7d317c58a44b/AndroidManifest.xml:23:88-111
	android:name
		ADDED from [com.google.firebase:firebase-messaging:11.6.2] /Users/admin/.gradle/caches/transforms-1/files-1.1/firebase-messaging-11.6.2.aar/b44d062ec20c151b258e7d317c58a44b/AndroidManifest.xml:23:18-87
activity#com.google.android.gms.common.api.GoogleApiActivity
ADDED from [com.google.android.gms:play-services-base:11.6.2] /Users/admin/.gradle/caches/transforms-1/files-1.1/play-services-base-11.6.2.aar/e7529e978cb50e35cbbbd2d4f7293883/AndroidManifest.xml:19:9-172
	android:exported
		ADDED from [com.google.android.gms:play-services-base:11.6.2] /Users/admin/.gradle/caches/transforms-1/files-1.1/play-services-base-11.6.2.aar/e7529e978cb50e35cbbbd2d4f7293883/AndroidManifest.xml:19:146-170
	android:theme
		ADDED from [com.google.android.gms:play-services-base:11.6.2] /Users/admin/.gradle/caches/transforms-1/files-1.1/play-services-base-11.6.2.aar/e7529e978cb50e35cbbbd2d4f7293883/AndroidManifest.xml:19:86-145
	android:name
		ADDED from [com.google.android.gms:play-services-base:11.6.2] /Users/admin/.gradle/caches/transforms-1/files-1.1/play-services-base-11.6.2.aar/e7529e978cb50e35cbbbd2d4f7293883/AndroidManifest.xml:19:19-85
receiver#com.google.android.gms.measurement.AppMeasurementReceiver
ADDED from [com.google.firebase:firebase-analytics:11.6.2] /Users/admin/.gradle/caches/transforms-1/files-1.1/firebase-analytics-11.6.2.aar/50a0eb0d07c3ef3f6fe9025c238dc2c8/AndroidManifest.xml:25:7-26:18
MERGED from [com.google.firebase:firebase-analytics-impl:11.6.2] /Users/admin/.gradle/caches/transforms-1/files-1.1/firebase-analytics-impl-11.6.2.aar/943439ab7f53c79fb7031432035f5998/AndroidManifest.xml:25:7-26:18
MERGED from [com.google.firebase:firebase-analytics-impl:11.6.2] /Users/admin/.gradle/caches/transforms-1/files-1.1/firebase-analytics-impl-11.6.2.aar/943439ab7f53c79fb7031432035f5998/AndroidManifest.xml:25:7-26:18
	android:enabled
		ADDED from [com.google.firebase:firebase-analytics:11.6.2] /Users/admin/.gradle/caches/transforms-1/files-1.1/firebase-analytics-11.6.2.aar/50a0eb0d07c3ef3f6fe9025c238dc2c8/AndroidManifest.xml:25:90-112
	android:exported
		ADDED from [com.google.firebase:firebase-analytics:11.6.2] /Users/admin/.gradle/caches/transforms-1/files-1.1/firebase-analytics-11.6.2.aar/50a0eb0d07c3ef3f6fe9025c238dc2c8/AndroidManifest.xml:25:113-137
	android:name
		ADDED from [com.google.firebase:firebase-analytics:11.6.2] /Users/admin/.gradle/caches/transforms-1/files-1.1/firebase-analytics-11.6.2.aar/50a0eb0d07c3ef3f6fe9025c238dc2c8/AndroidManifest.xml:25:17-89
receiver#com.google.android.gms.measurement.AppMeasurementInstallReferrerReceiver
ADDED from [com.google.firebase:firebase-analytics:11.6.2] /Users/admin/.gradle/caches/transforms-1/files-1.1/firebase-analytics-11.6.2.aar/50a0eb0d07c3ef3f6fe9025c238dc2c8/AndroidManifest.xml:27:7-31:18
	android:enabled
		ADDED from [com.google.firebase:firebase-analytics:11.6.2] /Users/admin/.gradle/caches/transforms-1/files-1.1/firebase-analytics-11.6.2.aar/50a0eb0d07c3ef3f6fe9025c238dc2c8/AndroidManifest.xml:27:162-184
	android:exported
		ADDED from [com.google.firebase:firebase-analytics:11.6.2] /Users/admin/.gradle/caches/transforms-1/files-1.1/firebase-analytics-11.6.2.aar/50a0eb0d07c3ef3f6fe9025c238dc2c8/AndroidManifest.xml:27:185-208
	android:permission
		ADDED from [com.google.firebase:firebase-analytics:11.6.2] /Users/admin/.gradle/caches/transforms-1/files-1.1/firebase-analytics-11.6.2.aar/50a0eb0d07c3ef3f6fe9025c238dc2c8/AndroidManifest.xml:27:105-161
	android:name
		ADDED from [com.google.firebase:firebase-analytics:11.6.2] /Users/admin/.gradle/caches/transforms-1/files-1.1/firebase-analytics-11.6.2.aar/50a0eb0d07c3ef3f6fe9025c238dc2c8/AndroidManifest.xml:27:17-104
intent-filter#com.android.vending.INSTALL_REFERRER
ADDED from [com.google.firebase:firebase-analytics:11.6.2] /Users/admin/.gradle/caches/transforms-1/files-1.1/firebase-analytics-11.6.2.aar/50a0eb0d07c3ef3f6fe9025c238dc2c8/AndroidManifest.xml:28:11-30:27
action#com.android.vending.INSTALL_REFERRER
ADDED from [com.google.firebase:firebase-analytics:11.6.2] /Users/admin/.gradle/caches/transforms-1/files-1.1/firebase-analytics-11.6.2.aar/50a0eb0d07c3ef3f6fe9025c238dc2c8/AndroidManifest.xml:29:15-76
	android:name
		ADDED from [com.google.firebase:firebase-analytics:11.6.2] /Users/admin/.gradle/caches/transforms-1/files-1.1/firebase-analytics-11.6.2.aar/50a0eb0d07c3ef3f6fe9025c238dc2c8/AndroidManifest.xml:29:23-74
service#com.google.android.gms.measurement.AppMeasurementService
ADDED from [com.google.firebase:firebase-analytics:11.6.2] /Users/admin/.gradle/caches/transforms-1/files-1.1/firebase-analytics-11.6.2.aar/50a0eb0d07c3ef3f6fe9025c238dc2c8/AndroidManifest.xml:32:7-137
MERGED from [com.google.firebase:firebase-analytics-impl:11.6.2] /Users/admin/.gradle/caches/transforms-1/files-1.1/firebase-analytics-impl-11.6.2.aar/943439ab7f53c79fb7031432035f5998/AndroidManifest.xml:27:7-137
MERGED from [com.google.firebase:firebase-analytics-impl:11.6.2] /Users/admin/.gradle/caches/transforms-1/files-1.1/firebase-analytics-impl-11.6.2.aar/943439ab7f53c79fb7031432035f5998/AndroidManifest.xml:27:7-137
	android:enabled
		ADDED from [com.google.firebase:firebase-analytics:11.6.2] /Users/admin/.gradle/caches/transforms-1/files-1.1/firebase-analytics-11.6.2.aar/50a0eb0d07c3ef3f6fe9025c238dc2c8/AndroidManifest.xml:32:88-110
	android:exported
		ADDED from [com.google.firebase:firebase-analytics:11.6.2] /Users/admin/.gradle/caches/transforms-1/files-1.1/firebase-analytics-11.6.2.aar/50a0eb0d07c3ef3f6fe9025c238dc2c8/AndroidManifest.xml:32:111-135
	android:name
		ADDED from [com.google.firebase:firebase-analytics:11.6.2] /Users/admin/.gradle/caches/transforms-1/files-1.1/firebase-analytics-11.6.2.aar/50a0eb0d07c3ef3f6fe9025c238dc2c8/AndroidManifest.xml:32:16-87
service#com.google.android.gms.measurement.AppMeasurementJobService
ADDED from [com.google.firebase:firebase-analytics:11.6.2] /Users/admin/.gradle/caches/transforms-1/files-1.1/firebase-analytics-11.6.2.aar/50a0eb0d07c3ef3f6fe9025c238dc2c8/AndroidManifest.xml:33:7-197
	android:enabled
		ADDED from [com.google.firebase:firebase-analytics:11.6.2] /Users/admin/.gradle/caches/transforms-1/files-1.1/firebase-analytics-11.6.2.aar/50a0eb0d07c3ef3f6fe9025c238dc2c8/AndroidManifest.xml:33:148-170
	android:exported
		ADDED from [com.google.firebase:firebase-analytics:11.6.2] /Users/admin/.gradle/caches/transforms-1/files-1.1/firebase-analytics-11.6.2.aar/50a0eb0d07c3ef3f6fe9025c238dc2c8/AndroidManifest.xml:33:171-195
	android:permission
		ADDED from [com.google.firebase:firebase-analytics:11.6.2] /Users/admin/.gradle/caches/transforms-1/files-1.1/firebase-analytics-11.6.2.aar/50a0eb0d07c3ef3f6fe9025c238dc2c8/AndroidManifest.xml:33:91-147
	android:name
		ADDED from [com.google.firebase:firebase-analytics:11.6.2] /Users/admin/.gradle/caches/transforms-1/files-1.1/firebase-analytics-11.6.2.aar/50a0eb0d07c3ef3f6fe9025c238dc2c8/AndroidManifest.xml:33:16-90
uses-permission#com.google.android.c2dm.permission.RECEIVE
ADDED from [com.google.firebase:firebase-iid:11.6.2] /Users/admin/.gradle/caches/transforms-1/files-1.1/firebase-iid-11.6.2.aar/9169b2d0edf8cf6d340b8511cf841e5d/AndroidManifest.xml:23:5-81
	android:name
		ADDED from [com.google.firebase:firebase-iid:11.6.2] /Users/admin/.gradle/caches/transforms-1/files-1.1/firebase-iid-11.6.2.aar/9169b2d0edf8cf6d340b8511cf841e5d/AndroidManifest.xml:23:22-79
permission#${applicationId}.permission.C2D_MESSAGE
ADDED from [com.google.firebase:firebase-iid:11.6.2] /Users/admin/.gradle/caches/transforms-1/files-1.1/firebase-iid-11.6.2.aar/9169b2d0edf8cf6d340b8511cf841e5d/AndroidManifest.xml:25:5-109
	android:protectionLevel
		ADDED from [com.google.firebase:firebase-iid:11.6.2] /Users/admin/.gradle/caches/transforms-1/files-1.1/firebase-iid-11.6.2.aar/9169b2d0edf8cf6d340b8511cf841e5d/AndroidManifest.xml:25:72-107
	android:name
		ADDED from [com.google.firebase:firebase-iid:11.6.2] /Users/admin/.gradle/caches/transforms-1/files-1.1/firebase-iid-11.6.2.aar/9169b2d0edf8cf6d340b8511cf841e5d/AndroidManifest.xml:25:17-71
permission#dk.nabosupportaps.nabosupport.permission.C2D_MESSAGE
ADDED from [com.google.firebase:firebase-iid:11.6.2] /Users/admin/.gradle/caches/transforms-1/files-1.1/firebase-iid-11.6.2.aar/9169b2d0edf8cf6d340b8511cf841e5d/AndroidManifest.xml:25:5-109
	android:protectionLevel
		ADDED from [com.google.firebase:firebase-iid:11.6.2] /Users/admin/.gradle/caches/transforms-1/files-1.1/firebase-iid-11.6.2.aar/9169b2d0edf8cf6d340b8511cf841e5d/AndroidManifest.xml:25:72-107
	android:name
		ADDED from [com.google.firebase:firebase-iid:11.6.2] /Users/admin/.gradle/caches/transforms-1/files-1.1/firebase-iid-11.6.2.aar/9169b2d0edf8cf6d340b8511cf841e5d/AndroidManifest.xml:25:17-71
uses-permission#${applicationId}.permission.C2D_MESSAGE
ADDED from [com.google.firebase:firebase-iid:11.6.2] /Users/admin/.gradle/caches/transforms-1/files-1.1/firebase-iid-11.6.2.aar/9169b2d0edf8cf6d340b8511cf841e5d/AndroidManifest.xml:27:5-78
	android:name
		ADDED from [com.google.firebase:firebase-iid:11.6.2] /Users/admin/.gradle/caches/transforms-1/files-1.1/firebase-iid-11.6.2.aar/9169b2d0edf8cf6d340b8511cf841e5d/AndroidManifest.xml:27:22-76
uses-permission#dk.nabosupportaps.nabosupport.permission.C2D_MESSAGE
ADDED from [com.google.firebase:firebase-iid:11.6.2] /Users/admin/.gradle/caches/transforms-1/files-1.1/firebase-iid-11.6.2.aar/9169b2d0edf8cf6d340b8511cf841e5d/AndroidManifest.xml:27:5-78
	android:name
		ADDED from [com.google.firebase:firebase-iid:11.6.2] /Users/admin/.gradle/caches/transforms-1/files-1.1/firebase-iid-11.6.2.aar/9169b2d0edf8cf6d340b8511cf841e5d/AndroidManifest.xml:27:22-76
receiver#com.google.firebase.iid.FirebaseInstanceIdReceiver
ADDED from [com.google.firebase:firebase-iid:11.6.2] /Users/admin/.gradle/caches/transforms-1/files-1.1/firebase-iid-11.6.2.aar/9169b2d0edf8cf6d340b8511cf841e5d/AndroidManifest.xml:31:9-36:20
	android:exported
		ADDED from [com.google.firebase:firebase-iid:11.6.2] /Users/admin/.gradle/caches/transforms-1/files-1.1/firebase-iid-11.6.2.aar/9169b2d0edf8cf6d340b8511cf841e5d/AndroidManifest.xml:31:85-108
	android:permission
		ADDED from [com.google.firebase:firebase-iid:11.6.2] /Users/admin/.gradle/caches/transforms-1/files-1.1/firebase-iid-11.6.2.aar/9169b2d0edf8cf6d340b8511cf841e5d/AndroidManifest.xml:31:109-169
	android:name
		ADDED from [com.google.firebase:firebase-iid:11.6.2] /Users/admin/.gradle/caches/transforms-1/files-1.1/firebase-iid-11.6.2.aar/9169b2d0edf8cf6d340b8511cf841e5d/AndroidManifest.xml:31:19-84
intent-filter#${applicationId}+com.google.android.c2dm.intent.RECEIVE
ADDED from [com.google.firebase:firebase-iid:11.6.2] /Users/admin/.gradle/caches/transforms-1/files-1.1/firebase-iid-11.6.2.aar/9169b2d0edf8cf6d340b8511cf841e5d/AndroidManifest.xml:32:13-35:29
intent-filter#com.google.android.c2dm.intent.RECEIVE+dk.nabosupportaps.nabosupport
ADDED from [com.google.firebase:firebase-iid:11.6.2] /Users/admin/.gradle/caches/transforms-1/files-1.1/firebase-iid-11.6.2.aar/9169b2d0edf8cf6d340b8511cf841e5d/AndroidManifest.xml:32:13-35:29
action#com.google.android.c2dm.intent.RECEIVE
ADDED from [com.google.firebase:firebase-iid:11.6.2] /Users/admin/.gradle/caches/transforms-1/files-1.1/firebase-iid-11.6.2.aar/9169b2d0edf8cf6d340b8511cf841e5d/AndroidManifest.xml:33:17-80
	android:name
		ADDED from [com.google.firebase:firebase-iid:11.6.2] /Users/admin/.gradle/caches/transforms-1/files-1.1/firebase-iid-11.6.2.aar/9169b2d0edf8cf6d340b8511cf841e5d/AndroidManifest.xml:33:25-78
category#${applicationId}
ADDED from [com.google.firebase:firebase-iid:11.6.2] /Users/admin/.gradle/caches/transforms-1/files-1.1/firebase-iid-11.6.2.aar/9169b2d0edf8cf6d340b8511cf841e5d/AndroidManifest.xml:34:17-60
	android:name
		ADDED from [com.google.firebase:firebase-iid:11.6.2] /Users/admin/.gradle/caches/transforms-1/files-1.1/firebase-iid-11.6.2.aar/9169b2d0edf8cf6d340b8511cf841e5d/AndroidManifest.xml:34:27-58
category#dk.nabosupportaps.nabosupport
ADDED from [com.google.firebase:firebase-iid:11.6.2] /Users/admin/.gradle/caches/transforms-1/files-1.1/firebase-iid-11.6.2.aar/9169b2d0edf8cf6d340b8511cf841e5d/AndroidManifest.xml:34:17-60
	android:name
		ADDED from [com.google.firebase:firebase-iid:11.6.2] /Users/admin/.gradle/caches/transforms-1/files-1.1/firebase-iid-11.6.2.aar/9169b2d0edf8cf6d340b8511cf841e5d/AndroidManifest.xml:34:27-58
service#com.google.firebase.iid.FirebaseInstanceIdService
ADDED from [com.google.firebase:firebase-iid:11.6.2] /Users/admin/.gradle/caches/transforms-1/files-1.1/firebase-iid-11.6.2.aar/9169b2d0edf8cf6d340b8511cf841e5d/AndroidManifest.xml:40:9-44:19
	android:exported
		ADDED from [com.google.firebase:firebase-iid:11.6.2] /Users/admin/.gradle/caches/transforms-1/files-1.1/firebase-iid-11.6.2.aar/9169b2d0edf8cf6d340b8511cf841e5d/AndroidManifest.xml:40:83-106
	android:name
		ADDED from [com.google.firebase:firebase-iid:11.6.2] /Users/admin/.gradle/caches/transforms-1/files-1.1/firebase-iid-11.6.2.aar/9169b2d0edf8cf6d340b8511cf841e5d/AndroidManifest.xml:40:18-82
provider#com.google.firebase.provider.FirebaseInitProvider
ADDED from [com.google.firebase:firebase-common:11.6.2] /Users/admin/.gradle/caches/transforms-1/files-1.1/firebase-common-11.6.2.aar/55538ec36f151925b6b8500c6844da72/AndroidManifest.xml:6:9-194
	android:authorities
		ADDED from [com.google.firebase:firebase-common:11.6.2] /Users/admin/.gradle/caches/transforms-1/files-1.1/firebase-common-11.6.2.aar/55538ec36f151925b6b8500c6844da72/AndroidManifest.xml:6:19-78
	android:exported
		ADDED from [com.google.firebase:firebase-common:11.6.2] /Users/admin/.gradle/caches/transforms-1/files-1.1/firebase-common-11.6.2.aar/55538ec36f151925b6b8500c6844da72/AndroidManifest.xml:6:144-168
	android:initOrder
		ADDED from [com.google.firebase:firebase-common:11.6.2] /Users/admin/.gradle/caches/transforms-1/files-1.1/firebase-common-11.6.2.aar/55538ec36f151925b6b8500c6844da72/AndroidManifest.xml:6:169-192
	android:name
		ADDED from [com.google.firebase:firebase-common:11.6.2] /Users/admin/.gradle/caches/transforms-1/files-1.1/firebase-common-11.6.2.aar/55538ec36f151925b6b8500c6844da72/AndroidManifest.xml:6:79-143
meta-data#com.google.android.gms.version
ADDED from [com.google.android.gms:play-services-basement:11.6.2] /Users/admin/.gradle/caches/transforms-1/files-1.1/play-services-basement-11.6.2.aar/92b5761a22e733ae686a5bed0454fe9c/AndroidManifest.xml:20:9-121
	android:value
		ADDED from [com.google.android.gms:play-services-basement:11.6.2] /Users/admin/.gradle/caches/transforms-1/files-1.1/play-services-basement-11.6.2.aar/92b5761a22e733ae686a5bed0454fe9c/AndroidManifest.xml:20:66-119
	android:name
		ADDED from [com.google.android.gms:play-services-basement:11.6.2] /Users/admin/.gradle/caches/transforms-1/files-1.1/play-services-basement-11.6.2.aar/92b5761a22e733ae686a5bed0454fe9c/AndroidManifest.xml:20:20-65
uses-permission#com.sec.android.provider.badge.permission.READ
ADDED from [me.leolin:ShortcutBadger:1.1.17] /Users/admin/.gradle/caches/transforms-1/files-1.1/ShortcutBadger-1.1.17.aar/8bb9f81426f156f78c7d36936baa9be7/AndroidManifest.xml:19:5-86
	android:name
		ADDED from [me.leolin:ShortcutBadger:1.1.17] /Users/admin/.gradle/caches/transforms-1/files-1.1/ShortcutBadger-1.1.17.aar/8bb9f81426f156f78c7d36936baa9be7/AndroidManifest.xml:19:22-83
uses-permission#com.sec.android.provider.badge.permission.WRITE
ADDED from [me.leolin:ShortcutBadger:1.1.17] /Users/admin/.gradle/caches/transforms-1/files-1.1/ShortcutBadger-1.1.17.aar/8bb9f81426f156f78c7d36936baa9be7/AndroidManifest.xml:20:5-87
	android:name
		ADDED from [me.leolin:ShortcutBadger:1.1.17] /Users/admin/.gradle/caches/transforms-1/files-1.1/ShortcutBadger-1.1.17.aar/8bb9f81426f156f78c7d36936baa9be7/AndroidManifest.xml:20:22-84
uses-permission#com.htc.launcher.permission.READ_SETTINGS
ADDED from [me.leolin:ShortcutBadger:1.1.17] /Users/admin/.gradle/caches/transforms-1/files-1.1/ShortcutBadger-1.1.17.aar/8bb9f81426f156f78c7d36936baa9be7/AndroidManifest.xml:23:5-81
	android:name
		ADDED from [me.leolin:ShortcutBadger:1.1.17] /Users/admin/.gradle/caches/transforms-1/files-1.1/ShortcutBadger-1.1.17.aar/8bb9f81426f156f78c7d36936baa9be7/AndroidManifest.xml:23:22-78
uses-permission#com.htc.launcher.permission.UPDATE_SHORTCUT
ADDED from [me.leolin:ShortcutBadger:1.1.17] /Users/admin/.gradle/caches/transforms-1/files-1.1/ShortcutBadger-1.1.17.aar/8bb9f81426f156f78c7d36936baa9be7/AndroidManifest.xml:24:5-83
	android:name
		ADDED from [me.leolin:ShortcutBadger:1.1.17] /Users/admin/.gradle/caches/transforms-1/files-1.1/ShortcutBadger-1.1.17.aar/8bb9f81426f156f78c7d36936baa9be7/AndroidManifest.xml:24:22-80
uses-permission#com.sonyericsson.home.permission.BROADCAST_BADGE
ADDED from [me.leolin:ShortcutBadger:1.1.17] /Users/admin/.gradle/caches/transforms-1/files-1.1/ShortcutBadger-1.1.17.aar/8bb9f81426f156f78c7d36936baa9be7/AndroidManifest.xml:27:5-88
	android:name
		ADDED from [me.leolin:ShortcutBadger:1.1.17] /Users/admin/.gradle/caches/transforms-1/files-1.1/ShortcutBadger-1.1.17.aar/8bb9f81426f156f78c7d36936baa9be7/AndroidManifest.xml:27:22-85
uses-permission#com.sonymobile.home.permission.PROVIDER_INSERT_BADGE
ADDED from [me.leolin:ShortcutBadger:1.1.17] /Users/admin/.gradle/caches/transforms-1/files-1.1/ShortcutBadger-1.1.17.aar/8bb9f81426f156f78c7d36936baa9be7/AndroidManifest.xml:28:5-92
	android:name
		ADDED from [me.leolin:ShortcutBadger:1.1.17] /Users/admin/.gradle/caches/transforms-1/files-1.1/ShortcutBadger-1.1.17.aar/8bb9f81426f156f78c7d36936baa9be7/AndroidManifest.xml:28:22-89
uses-permission#com.anddoes.launcher.permission.UPDATE_COUNT
ADDED from [me.leolin:ShortcutBadger:1.1.17] /Users/admin/.gradle/caches/transforms-1/files-1.1/ShortcutBadger-1.1.17.aar/8bb9f81426f156f78c7d36936baa9be7/AndroidManifest.xml:31:5-84
	android:name
		ADDED from [me.leolin:ShortcutBadger:1.1.17] /Users/admin/.gradle/caches/transforms-1/files-1.1/ShortcutBadger-1.1.17.aar/8bb9f81426f156f78c7d36936baa9be7/AndroidManifest.xml:31:22-81
uses-permission#com.majeur.launcher.permission.UPDATE_BADGE
ADDED from [me.leolin:ShortcutBadger:1.1.17] /Users/admin/.gradle/caches/transforms-1/files-1.1/ShortcutBadger-1.1.17.aar/8bb9f81426f156f78c7d36936baa9be7/AndroidManifest.xml:34:5-83
	android:name
		ADDED from [me.leolin:ShortcutBadger:1.1.17] /Users/admin/.gradle/caches/transforms-1/files-1.1/ShortcutBadger-1.1.17.aar/8bb9f81426f156f78c7d36936baa9be7/AndroidManifest.xml:34:22-80
uses-permission#com.huawei.android.launcher.permission.CHANGE_BADGE
ADDED from [me.leolin:ShortcutBadger:1.1.17] /Users/admin/.gradle/caches/transforms-1/files-1.1/ShortcutBadger-1.1.17.aar/8bb9f81426f156f78c7d36936baa9be7/AndroidManifest.xml:37:5-91
	android:name
		ADDED from [me.leolin:ShortcutBadger:1.1.17] /Users/admin/.gradle/caches/transforms-1/files-1.1/ShortcutBadger-1.1.17.aar/8bb9f81426f156f78c7d36936baa9be7/AndroidManifest.xml:37:22-88
uses-permission#com.huawei.android.launcher.permission.READ_SETTINGS
ADDED from [me.leolin:ShortcutBadger:1.1.17] /Users/admin/.gradle/caches/transforms-1/files-1.1/ShortcutBadger-1.1.17.aar/8bb9f81426f156f78c7d36936baa9be7/AndroidManifest.xml:38:5-92
	android:name
		ADDED from [me.leolin:ShortcutBadger:1.1.17] /Users/admin/.gradle/caches/transforms-1/files-1.1/ShortcutBadger-1.1.17.aar/8bb9f81426f156f78c7d36936baa9be7/AndroidManifest.xml:38:22-89
uses-permission#com.huawei.android.launcher.permission.WRITE_SETTINGS
ADDED from [me.leolin:ShortcutBadger:1.1.17] /Users/admin/.gradle/caches/transforms-1/files-1.1/ShortcutBadger-1.1.17.aar/8bb9f81426f156f78c7d36936baa9be7/AndroidManifest.xml:39:5-93
	android:name
		ADDED from [me.leolin:ShortcutBadger:1.1.17] /Users/admin/.gradle/caches/transforms-1/files-1.1/ShortcutBadger-1.1.17.aar/8bb9f81426f156f78c7d36936baa9be7/AndroidManifest.xml:39:22-90
uses-permission#android.permission.READ_APP_BADGE
ADDED from [me.leolin:ShortcutBadger:1.1.17] /Users/admin/.gradle/caches/transforms-1/files-1.1/ShortcutBadger-1.1.17.aar/8bb9f81426f156f78c7d36936baa9be7/AndroidManifest.xml:42:5-73
	android:name
		ADDED from [me.leolin:ShortcutBadger:1.1.17] /Users/admin/.gradle/caches/transforms-1/files-1.1/ShortcutBadger-1.1.17.aar/8bb9f81426f156f78c7d36936baa9be7/AndroidManifest.xml:42:22-70
uses-permission#com.oppo.launcher.permission.READ_SETTINGS
ADDED from [me.leolin:ShortcutBadger:1.1.17] /Users/admin/.gradle/caches/transforms-1/files-1.1/ShortcutBadger-1.1.17.aar/8bb9f81426f156f78c7d36936baa9be7/AndroidManifest.xml:45:5-82
	android:name
		ADDED from [me.leolin:ShortcutBadger:1.1.17] /Users/admin/.gradle/caches/transforms-1/files-1.1/ShortcutBadger-1.1.17.aar/8bb9f81426f156f78c7d36936baa9be7/AndroidManifest.xml:45:22-79
uses-permission#com.oppo.launcher.permission.WRITE_SETTINGS
ADDED from [me.leolin:ShortcutBadger:1.1.17] /Users/admin/.gradle/caches/transforms-1/files-1.1/ShortcutBadger-1.1.17.aar/8bb9f81426f156f78c7d36936baa9be7/AndroidManifest.xml:46:5-83
	android:name
		ADDED from [me.leolin:ShortcutBadger:1.1.17] /Users/admin/.gradle/caches/transforms-1/files-1.1/ShortcutBadger-1.1.17.aar/8bb9f81426f156f78c7d36936baa9be7/AndroidManifest.xml:46:22-80
uses-permission#me.everything.badger.permission.BADGE_COUNT_READ
ADDED from [me.leolin:ShortcutBadger:1.1.17] /Users/admin/.gradle/caches/transforms-1/files-1.1/ShortcutBadger-1.1.17.aar/8bb9f81426f156f78c7d36936baa9be7/AndroidManifest.xml:49:5-88
	android:name
		ADDED from [me.leolin:ShortcutBadger:1.1.17] /Users/admin/.gradle/caches/transforms-1/files-1.1/ShortcutBadger-1.1.17.aar/8bb9f81426f156f78c7d36936baa9be7/AndroidManifest.xml:49:22-85
uses-permission#me.everything.badger.permission.BADGE_COUNT_WRITE
ADDED from [me.leolin:ShortcutBadger:1.1.17] /Users/admin/.gradle/caches/transforms-1/files-1.1/ShortcutBadger-1.1.17.aar/8bb9f81426f156f78c7d36936baa9be7/AndroidManifest.xml:50:5-89
	android:name
		ADDED from [me.leolin:ShortcutBadger:1.1.17] /Users/admin/.gradle/caches/transforms-1/files-1.1/ShortcutBadger-1.1.17.aar/8bb9f81426f156f78c7d36936baa9be7/AndroidManifest.xml:50:22-86
