{
  "prepare_queue": {
    "installed": [],
    "uninstalled": []
  },
  "config_munge": {
    "files": {
      "config.xml": {
        "parents": {
          "/*": [
            {
              "xml": "<feature name=\"Device\"><param name=\"ios-package\" value=\"CDVDevice\" /></feature>",
              "count": 1
            },
            {
              "xml": "<feature name=\"EmailComposer\"><param name=\"ios-package\" value=\"APPEmailComposer\" /></feature>",
              "count": 1
            },
            {
              "xml": "<feature name=\"FilePicker\"><param name=\"ios-package\" value=\"FilePicker\" /></feature>",
              "count": 1
            },
            {
              "xml": "<feature name=\"Geolocation\"><param name=\"ios-package\" value=\"CDVLocation\" /></feature>",
              "count": 1
            },
            {
              "xml": "<feature name=\"InAppBrowser\"><param name=\"ios-package\" value=\"CDVInAppBrowser\" /></feature>",
              "count": 1
            },
            {
              "xml": "<allow-navigation href=\"http://localhost:8080/*\" />",
              "count": 1
            },
            {
              "xml": "<feature name=\"CDVWKWebViewEngine\"><param name=\"ios-package\" value=\"CDVWKWebViewEngine\" /></feature>",
              "count": 1
            },
            {
              "xml": "<preference name=\"CordovaWebViewEngine\" value=\"CDVWKWebViewEngine\" />",
              "count": 1
            },
            {
              "xml": "<feature name=\"BackgroundGeolocation\"><param name=\"ios-package\" value=\"CDVBackgroundGeolocation\" /><param name=\"onload\" value=\"true\" /></feature>",
              "count": 1
            },
            {
              "xml": "<feature name=\"NativeStorage\"><param name=\"ios-package\" value=\"NativeStorage\" /></feature>",
              "count": 1
            },
            {
              "xml": "<feature name=\"RequestLocationAccuracy\"><param name=\"ios-package\" value=\"RequestLocationAccuracy\" /></feature>",
              "count": 1
            },
            {
              "xml": "<feature name=\"SplashScreen\"><param name=\"ios-package\" value=\"CDVSplashScreen\" /><param name=\"onload\" value=\"true\" /></feature>",
              "count": 1
            },
            {
              "xml": "<feature name=\"Diagnostic\"><param name=\"ios-package\" value=\"Diagnostic\" /><param name=\"onload\" value=\"true\" /></feature>",
              "count": 1
            },
            {
              "xml": "<feature name=\"Keyboard\"><param name=\"ios-package\" onload=\"true\" value=\"IonicKeyboard\" /></feature>",
              "count": 1
            },
            {
              "xml": "<feature name=\"PushNotification\"><param name=\"ios-package\" value=\"PushPlugin\" /></feature>",
              "count": 1
            }
          ]
        }
      },
      "*-Info.plist": {
        "parents": {
          "LSApplicationQueriesSchemes": [
            {
              "xml": "<array><string>mailto</string></array>",
              "count": 1
            }
          ],
          "NSLocationWhenInUseUsageDescription": [
            {
              "xml": "<string>To locate you</string>",
              "count": 1
            },
            {
              "xml": "<string>This app always requires location tracking</string>",
              "count": 1
            },
            {
              "xml": "<string>This app requires access to your location when the screen is on and the app is displayed.</string>",
              "count": 1
            }
          ],
          "NSLocationAlwaysUsageDescription": [
            {
              "xml": "<string>This app always requires location tracking</string>",
              "count": 1
            },
            {
              "xml": "<string>This app requires constant access to your location in order to track your position, even when the screen is off or the app is in the background.</string>",
              "count": 1
            }
          ],
          "NSLocationAlwaysAndWhenInUseUsageDescription": [
            {
              "xml": "<string>This app always requires location tracking</string>",
              "count": 1
            },
            {
              "xml": "<string>This app requires constant access to your location in order to track your position, even when the screen is off or the app is in the background.</string>",
              "count": 1
            }
          ],
          "UIBackgroundModes": [
            {
              "xml": "<array><string>location</string></array>",
              "count": 1
            },
            {
              "xml": "<array><string>remote-notification</string></array>",
              "count": 1
            }
          ],
          "CFBundleURLTypes": [
            {
              "xml": "<array><dict><key>CFBundleTypeRole</key><string>Editor</string><key>CFBundleURLSchemes</key><array><string>prefs</string></array></dict></array>",
              "count": 1
            }
          ],
          "NSCalendarsUsageDescription": [
            {
              "xml": "<string>This app requires calendar access to function properly.</string>",
              "count": 1
            }
          ],
          "NSPhotoLibraryUsageDescription": [
            {
              "xml": "<string>This app requires photo library access to function properly.</string>",
              "count": 1
            }
          ],
          "NSBluetoothPeripheralUsageDescription": [
            {
              "xml": "<string>This app requires bluetooth access to function properly.</string>",
              "count": 1
            }
          ],
          "NSMicrophoneUsageDescription": [
            {
              "xml": "<string>This app requires microphone access to function properly.</string>",
              "count": 1
            }
          ],
          "NSCameraUsageDescription": [
            {
              "xml": "<string>This app requires camera access to function properly.</string>",
              "count": 1
            }
          ],
          "NSMotionUsageDescription": [
            {
              "xml": "<string>This app requires motion detection access to function properly.</string>",
              "count": 1
            }
          ],
          "NSContactsUsageDescription": [
            {
              "xml": "<string>This app requires contacts access to function properly.</string>",
              "count": 1
            }
          ],
          "NSRemindersUsageDescription": [
            {
              "xml": "<string>This app requires reminders access to function properly.</string>",
              "count": 1
            }
          ]
        }
      },
      "*-Debug.plist": {
        "parents": {
          "aps-environment": [
            {
              "xml": "<string>development</string>",
              "count": 1
            }
          ]
        }
      },
      "*-Release.plist": {
        "parents": {
          "aps-environment": [
            {
              "xml": "<string>production</string>",
              "count": 1
            }
          ]
        }
      }
    }
  },
  "installed_plugins": {
    "cordova-android-support-gradle-release": {
      "PACKAGE_NAME": "dk.nabosupportaps.nabosupport"
    },
    "cordova-plugin-compat": {
      "PACKAGE_NAME": "dk.nabosupportaps.nabosupport"
    },
    "cordova-plugin-device": {
      "PACKAGE_NAME": "dk.nabosupportaps.nabosupport"
    },
    "cordova-plugin-email-composer": {
      "PACKAGE_NAME": "dk.nabosupportaps.nabosupport"
    },
    "cordova-plugin-filepicker": {
      "PACKAGE_NAME": "dk.nabosupportaps.nabosupport"
    },
    "cordova-plugin-geolocation": {
      "GEOLOCATION_USAGE_DESCRIPTION": "To locate you",
      "PACKAGE_NAME": "dk.nabosupportaps.nabosupport"
    },
    "cordova-plugin-inappbrowser": {
      "PACKAGE_NAME": "dk.nabosupportaps.nabosupport"
    },
    "cordova-plugin-ionic-webview": {
      "PACKAGE_NAME": "dk.nabosupportaps.nabosupport"
    },
    "cordova-plugin-mauron85-background-geolocation": {
      "ALWAYS_USAGE_DESCRIPTION": "This app always requires location tracking",
      "PACKAGE_NAME": "dk.nabosupportaps.nabosupport"
    },
    "cordova-plugin-nativestorage": {
      "PACKAGE_NAME": "dk.nabosupportaps.nabosupport"
    },
    "cordova-plugin-request-location-accuracy": {
      "PACKAGE_NAME": "dk.nabosupportaps.nabosupport"
    },
    "cordova-plugin-splashscreen": {
      "PACKAGE_NAME": "dk.nabosupportaps.nabosupport"
    },
    "cordova-plugin-whitelist": {
      "PACKAGE_NAME": "dk.nabosupportaps.nabosupport"
    },
    "cordova.plugins.diagnostic": {
      "PACKAGE_NAME": "dk.nabosupportaps.nabosupport"
    },
    "ionic-plugin-keyboard": {
      "PACKAGE_NAME": "dk.nabosupportaps.nabosupport"
    },
    "phonegap-plugin-push": {
      "PACKAGE_NAME": "dk.nabosupportaps.nabosupport"
    }
  },
  "dependent_plugins": {},
  "modules": [
    {
      "id": "cordova-plugin-device.device",
      "file": "plugins/cordova-plugin-device/www/device.js",
      "pluginId": "cordova-plugin-device",
      "clobbers": [
        "device"
      ]
    },
    {
      "id": "cordova-plugin-email-composer.EmailComposer",
      "file": "plugins/cordova-plugin-email-composer/www/email_composer.js",
      "pluginId": "cordova-plugin-email-composer",
      "clobbers": [
        "cordova.plugins.email",
        "plugin.email"
      ]
    },
    {
      "id": "cordova-plugin-filepicker.FilePicker",
      "file": "plugins/cordova-plugin-filepicker/www/FilePicker.js",
      "pluginId": "cordova-plugin-filepicker",
      "clobbers": [
        "FilePicker"
      ]
    },
    {
      "id": "cordova-plugin-geolocation.Coordinates",
      "file": "plugins/cordova-plugin-geolocation/www/Coordinates.js",
      "pluginId": "cordova-plugin-geolocation",
      "clobbers": [
        "Coordinates"
      ]
    },
    {
      "id": "cordova-plugin-geolocation.PositionError",
      "file": "plugins/cordova-plugin-geolocation/www/PositionError.js",
      "pluginId": "cordova-plugin-geolocation",
      "clobbers": [
        "PositionError"
      ]
    },
    {
      "id": "cordova-plugin-geolocation.Position",
      "file": "plugins/cordova-plugin-geolocation/www/Position.js",
      "pluginId": "cordova-plugin-geolocation",
      "clobbers": [
        "Position"
      ]
    },
    {
      "id": "cordova-plugin-geolocation.geolocation",
      "file": "plugins/cordova-plugin-geolocation/www/geolocation.js",
      "pluginId": "cordova-plugin-geolocation",
      "clobbers": [
        "navigator.geolocation"
      ]
    },
    {
      "id": "cordova-plugin-inappbrowser.inappbrowser",
      "file": "plugins/cordova-plugin-inappbrowser/www/inappbrowser.js",
      "pluginId": "cordova-plugin-inappbrowser",
      "clobbers": [
        "cordova.InAppBrowser.open",
        "window.open"
      ]
    },
    {
      "id": "cordova-plugin-ionic-webview.ios-wkwebview-exec",
      "file": "plugins/cordova-plugin-ionic-webview/src/www/ios/ios-wkwebview-exec.js",
      "pluginId": "cordova-plugin-ionic-webview",
      "clobbers": [
        "cordova.exec"
      ]
    },
    {
      "id": "cordova-plugin-mauron85-background-geolocation.backgroundGeolocation",
      "file": "plugins/cordova-plugin-mauron85-background-geolocation/www/backgroundGeolocation.js",
      "pluginId": "cordova-plugin-mauron85-background-geolocation",
      "clobbers": [
        "backgroundGeolocation"
      ]
    },
    {
      "id": "cordova-plugin-nativestorage.mainHandle",
      "file": "plugins/cordova-plugin-nativestorage/www/mainHandle.js",
      "pluginId": "cordova-plugin-nativestorage",
      "clobbers": [
        "NativeStorage"
      ]
    },
    {
      "id": "cordova-plugin-nativestorage.LocalStorageHandle",
      "file": "plugins/cordova-plugin-nativestorage/www/LocalStorageHandle.js",
      "pluginId": "cordova-plugin-nativestorage"
    },
    {
      "id": "cordova-plugin-nativestorage.NativeStorageError",
      "file": "plugins/cordova-plugin-nativestorage/www/NativeStorageError.js",
      "pluginId": "cordova-plugin-nativestorage"
    },
    {
      "id": "cordova-plugin-request-location-accuracy.RequestLocationAccuracy",
      "file": "plugins/cordova-plugin-request-location-accuracy/www/ios/RequestLocationAccuracy.js",
      "pluginId": "cordova-plugin-request-location-accuracy",
      "clobbers": [
        "cordova.plugins.locationAccuracy"
      ]
    },
    {
      "id": "cordova-plugin-splashscreen.SplashScreen",
      "file": "plugins/cordova-plugin-splashscreen/www/splashscreen.js",
      "pluginId": "cordova-plugin-splashscreen",
      "clobbers": [
        "navigator.splashscreen"
      ]
    },
    {
      "id": "cordova.plugins.diagnostic.Diagnostic",
      "file": "plugins/cordova.plugins.diagnostic/www/ios/diagnostic.js",
      "pluginId": "cordova.plugins.diagnostic",
      "clobbers": [
        "cordova.plugins.diagnostic"
      ]
    },
    {
      "id": "ionic-plugin-keyboard.keyboard",
      "file": "plugins/ionic-plugin-keyboard/www/ios/keyboard.js",
      "pluginId": "ionic-plugin-keyboard",
      "clobbers": [
        "cordova.plugins.Keyboard"
      ],
      "runs": true
    },
    {
      "id": "phonegap-plugin-push.PushNotification",
      "file": "plugins/phonegap-plugin-push/www/push.js",
      "pluginId": "phonegap-plugin-push",
      "clobbers": [
        "PushNotification"
      ]
    }
  ],
  "plugin_metadata": {
    "cordova-android-support-gradle-release": "1.4.4",
    "cordova-plugin-compat": "1.2.0",
    "cordova-plugin-device": "1.1.7",
    "cordova-plugin-email-composer": "0.8.15",
    "cordova-plugin-filepicker": "1.1.5",
    "cordova-plugin-geolocation": "2.4.3",
    "cordova-plugin-inappbrowser": "2.0.2",
    "cordova-plugin-ionic-webview": "1.2.1",
    "cordova-plugin-mauron85-background-geolocation": "2.3.5",
    "cordova-plugin-nativestorage": "2.3.2",
    "cordova-plugin-request-location-accuracy": "2.2.3",
    "cordova-plugin-splashscreen": "4.1.0",
    "cordova-plugin-whitelist": "1.3.3",
    "cordova.plugins.diagnostic": "3.9.2",
    "ionic-plugin-keyboard": "2.2.1",
    "phonegap-plugin-push": "2.2.3"
  }
}